Division,WeightClassKg,Place,Name,Team,BodyweightKg,Best3SquatKg,Best3BenchKg,Best3DeadliftKg,TotalKg,Equipment,Event,Sex
Boys,52,1,Chase Stansbury,Vidor,51.71,117.93,68.04,113.4,299.37,Single-ply,SBD,M
Boys,52,2,Logan Williams,Nederland,51.71,83.91,45.36,97.52,226.8,Single-ply,SBD,M
Boys,56,1,Lucas Magneson,Vidor,55.79,115.67,56.7,131.54,303.91,Single-ply,SBD,M
Boys,56,2,Shayan Rahim,Bridge City,55.79,113.4,68.04,97.52,278.96,Single-ply,SBD,M
Boys,56,3,Spencer Beck,Bridge City,55.79,86.18,54.43,113.4,254.01,Single-ply,SBD,M
Boys,60,1,Weston Tinsley,Lumberton,59.87,188.24,88.45,183.7,460.4,Single-ply,SBD,M
Boys,60,2,Jake Potter,Bridge City,59.87,174.63,90.72,176.9,442.25,Single-ply,SBD,M
Boys,60,3,Trey Hebert,Bridge City,59.87,158.76,81.65,174.63,415.04,Single-ply,SBD,M
Boys,60,4,Stephen Lopez,Lumberton,59.87,120.2,77.11,124.74,322.05,Single-ply,SBD,M
Boys,67.5,1,Sebastian Goodman,Lumberton,67.13,149.69,72.57,163.29,385.55,Single-ply,SBD,M
Boys,67.5,2,Dominque Breaux,Sour Lake Hardin-Jefferson,67.13,142.88,86.18,145.15,374.21,Single-ply,SBD,M
Boys,67.5,3,Estaban Quintinilla,Vidor,67.13,127.01,79.38,156.49,362.87,Single-ply,SBD,M
Boys,67.5,4,Diego Torres,Nederland,67.13,113.4,68.04,145.15,326.59,Single-ply,SBD,M
Boys,67.5,5,Tanner LeBlanc,Lumberton,67.13,117.93,63.5,136.08,317.51,Single-ply,SBD,M
Boys,67.5,6,Nate Stapleton,Lumberton,67.13,111.13,70.31,127.01,308.44,Single-ply,SBD,M
Boys,75,1,Jc Marshall,Vidor,74.84,190.51,117.93,190.51,498.95,Single-ply,SBD,M
Boys,75,2,Brock Nevils,Sour Lake Hardin-Jefferson,74.84,183.7,83.91,156.49,424.11,Single-ply,SBD,M
Boys,75,3,Davien Edwards,Bridge City,74.84,158.76,83.91,165.56,408.23,Single-ply,SBD,M
Boys,75,4,Josh Fuselier,Bridge City,74.84,156.49,88.45,156.49,401.43,Single-ply,SBD,M
Boys,75,5,Cole White,Lumberton,74.84,154.22,79.38,167.83,401.43,Single-ply,SBD,M
Boys,75,6,Tyler Fountain,Sour Lake Hardin-Jefferson,74.84,158.76,83.91,145.15,387.82,Single-ply,SBD,M
Boys,75,7,Sam Dickerson,Sour Lake Hardin-Jefferson,74.84,124.74,65.77,138.35,328.85,Single-ply,SBD,M
Boys,75,8,Texas Mayo,Nederland,74.84,95.25,56.7,97.52,249.48,Single-ply,SBD,M
Boys,75,DQ,Bryson Viator,Bridge City,74.84,156.49,,,,Single-ply,SBD,M
Boys,75,DQ,Cole Myers,Vidor,74.84,195.04,120.2,,,Single-ply,SBD,M
Boys,82.5,1,Trystain Conner,Sour Lake Hardin-Jefferson,82.1,190.51,102.06,179.17,471.74,Single-ply,SBD,M
Boys,82.5,2,Joseph Rodriguez,Sour Lake Hardin-Jefferson,82.1,161.03,92.99,170.1,424.11,Single-ply,SBD,M
Boys,82.5,3,Jackiebao Nguyen,Nederland,82.1,149.69,86.18,165.56,401.43,Single-ply,SBD,M
Boys,82.5,4,Dennis Tran,Nederland,82.1,151.95,81.65,147.42,381.02,Single-ply,SBD,M
Boys,82.5,5,Vincent Reed,Nederland,82.1,138.35,74.84,165.56,378.75,Single-ply,SBD,M
Boys,82.5,6,John Torres,Nederland,82.1,136.08,79.38,136.08,351.53,Single-ply,SBD,M
Boys,82.5,7,Caleb Gay,Sour Lake Hardin-Jefferson,82.1,129.27,63.5,122.47,315.25,Single-ply,SBD,M
Boys,82.5,DQ,Tommy Romero,Bridge City,82.1,158.76,,,,Single-ply,SBD,M
Boys,82.5,DQ,Mark DaLuz,Lumberton,82.1,145.15,,,,Single-ply,SBD,M
Boys,90,1,Jaice Beck,Nederland,89.81,151.95,111.13,145.15,408.23,Single-ply,SBD,M
Boys,90,2,Mason Minnis,Nederland,89.81,104.33,58.97,97.52,260.82,Single-ply,SBD,M
Boys,100,1,Grant Johnson,Vidor,99.79,235.87,154.22,242.67,632.76,Single-ply,SBD,M
Boys,100,2,Ian Wooten,Vidor,99.79,204.12,151.95,226.8,582.87,Single-ply,SBD,M
Boys,100,3,Jesse Adkins,Sour Lake Hardin-Jefferson,99.79,154.22,72.57,170.1,396.89,Single-ply,SBD,M
Boys,110,1,Jack Fontenot,Bridge City,109.77,319.78,170.1,235.87,725.75,Single-ply,SBD,M
Boys,110,2,Adonte Woodard,Vidor,109.77,254.01,163.29,204.12,621.42,Single-ply,SBD,M
Boys,110,3,Kolin McCullough,Sour Lake Hardin-Jefferson,109.77,183.7,129.27,197.31,510.29,Single-ply,SBD,M
Boys,110,4,Carl Stucker,Lumberton,109.77,199.58,88.45,195.04,483.08,Single-ply,SBD,M
Boys,110,5,Trenton Roccaforte,Bridge City,109.77,147.42,95.25,167.83,410.5,Single-ply,SBD,M
Boys,125,1,Mike Marshall,Nederland,124.74,170.1,108.86,161.03,439.98,Single-ply,SBD,M
Boys,125,2,Reese Roccaforte,Nederland,124.74,179.17,86.18,158.76,424.11,Single-ply,SBD,M
Boys,125,3,Guy Mapstone,Sour Lake Hardin-Jefferson,124.74,102.06,68.04,138.35,308.44,Single-ply,SBD,M
Boys,125+,1,Johathan Nguyen,Nederland,127.01,249.48,154.22,222.26,625.96,Single-ply,SBD,M
Boys,,DQ,Ben Leon,Sour Lake Hardin-Jefferson,,,,,,Single-ply,SBD,M
Boys,,DQ,Champ Roach,Lumberton,,,,,,Single-ply,SBD,M
Boys,,DQ,Mason Williams,Lumberton,,,,,,Single-ply,SBD,M
