Place,Sex,Name,CyrillicName,BodyweightKg,Squat1Kg,Squat2Kg,Squat3Kg,Best3SquatKg,Squat4Kg,Bench1Kg,Bench2Kg,Bench3Kg,Best3BenchKg,Bench4Kg,Deadlift1Kg,Deadlift2Kg,Deadlift3Kg,Best3DeadliftKg,Deadlift4Kg,TotalKg,WeightClassKg,Event,Equipment,Tested,Division,Age,BirthDate
1,F,Elena Abramova,Елена Абрамова,58.2,65,70,-75,70,,35,-42.5,45,45,,80,85,90,90,,205,60,SBD,Wraps,No,Pro Open,33,1985-05-29
1,F,Anastasiya Melnik,Анастасия Мельник,64,90,100,105,105,,52.5,57.5,-60,57.5,,120,-130,-130,120,,282.5,67.5,SBD,Wraps,No,Pro Juniors,22,1996-06-16
2,F,Marina Andreeva,Марина Андреева,62.8,-70,70,80,80,,42.5,47.5,50,50,,115,125,-130,125,,255,67.5,SBD,Wraps,No,Pro Juniors,22,1996-02-07
DQ,F,Viktoriya Mukhina,Виктория Мухина,67.9,-100,-110,-110,,,,,,,,,,,,,,75,SBD,Wraps,No,Pro Open,21,1997-05-27
1,F,Irina Yushina,Ирина Юшина,80.9,-115,115,-120,115,,57.5,-60,-60,57.5,,120,125,-130,125,,297.5,82.5,SBD,Wraps,No,Pro Masters 40-49,43,1974-07-19
1,M,Nikita Zhukov,Никита Жуков,73.1,130,-140,-140,130,,95,-100,100,100,,-120,-120,120,120,,350,75,SBD,Wraps,No,Pro Teen 17-19,17,2001-04-23
1,M,Viktor Solomatov,Виктор Соломатов,80.7,-170,170,180,180,,135,140,-145,140,,220,-232.5,232.5,232.5,,552.5,82.5,SBD,Wraps,No,Pro Open,25,1993-02-02
1,M,Ruslan Khansuvyarov,Руслан Хансувяров,87.5,-130,130,135,135,,105,-115,-115,105,,150,160,170,170,,410,90,SBD,Wraps,No,Pro Teen 17-19,18,2000-05-03
1,M,Vadim Ilev,Вадим Ильев,106.7,150,160,170,170,,95,100,-102.5,100,,180,190,-200,190,,460,110,SBD,Wraps,No,Pro Masters 40-49,43,1975-03-06
DQ,M,Nikita Davydov,Никита Давыдов,73.2,-150,-160,-160,,,,,,,,,,,,,,75,SBD,Wraps,No,Pro Juniors,23,1995-02-14
1,M,Mikhail Prikhodko,Михаил Приходько,98.8,200,-215,-220,200,,110,115,120,120,,225,245,272.5,272.5,,592.5,100,SBD,Wraps,No,Pro Open,26,1992-03-22
2,M,Roman Safronov,Роман Сафронов,95.1,210,225,-235,225,,-125,125,132.5,132.5,,202.5,222.5,-232.5,222.5,,580,100,SBD,Wraps,No,Pro Open,28,1989-08-04
DQ,M,Daniil Sinyakov,Даниил Синяков,106.6,-190,190,-205,190,,130,135,-142.5,135,,170,180,-190,180,,,110,SBD,Wraps,No,Pro Juniors,23,1994-09-06
1,M,Ivan Avramenko,Иван Авраменко,107.6,-320,320,-355,320,,220,240,,240,,280,300,-320,300,,860,110,SBD,Single-ply,No,Pro Open,30,1988-03-24
1,F,Yuliya Abramova,Юлия Абрамова,55.5,,,,,,47.5,-50,50,50,,,,,,,50,56,B,Raw,No,Pro Open,30,1987-12-11
1,F,Darya Mastyukova,Дарья Мастюкова,58,,,,,,-47.5,50,52.5,52.5,,,,,,,52.5,60,B,Raw,No,Pro Juniors,21,1996-12-02
1,F,Elena Abramova,Елена Абрамова,58.2,,,,,,35,-42.5,45,45,,,,,,,45,60,B,Raw,No,Pro Open,33,1985-05-29
1,F,Lana Kiseleva,Лана Киселева,61.6,,,,,,45,-50,-50,45,,,,,,,45,67.5,B,Raw,No,Pro Girls 14-16,16,2001-11-09
1,F,Mariya Kirillova,Мария Кириллова,66.4,,,,,,60,65,-70,65,,,,,,,65,67.5,B,Raw,No,Pro Open,31,1986-11-08
2,F,Anastasiya Melnik,Анастасия Мельник,67.5,,,,,,52.5,57.5,-60,57.5,,,,,,,57.5,67.5,B,Raw,No,Pro Open,22,1996-06-16
1,M,Ruslan Aliev,Руслан Алиев,69.1,,,,,,-110,110,-112.5,110,,,,,,,110,75,B,Raw,No,Pro Teen 17-19,18,2000-02-04
1,M,Ruslan Rozanov,Руслан Розанов,70.5,,,,,,-160,-160,160,160,,,,,,,160,75,B,Raw,No,Pro Open,32,1986-03-05
2,M,Stanislav Vorobev,Станислав Воробьев,74.4,,,,,,130,135,-137.5,135,,,,,,,135,75,B,Raw,No,Pro Open,24,1994-04-28
3,M,Aleksey Kulikov,Алексей Куликов,72.4,,,,,,112.5,115,117.5,117.5,,,,,,,117.5,75,B,Raw,No,Pro Open,25,1993-02-17
1,M,Yuriy Smagin,Юрий Смагин,80.4,,,,,,102.5,112.5,-115,112.5,,,,,,,112.5,82.5,B,Raw,No,Pro Teen 17-19,19,1998-10-12
1,M,Maksim Petrichenko,Максим Петриченко,87.1,,,,,,172.5,177.5,180,180,,,,,,,180,90,B,Raw,No,Pro Open,31,1987-05-01
2,M,Nikolay Bogdanov,Николай Богданов,88.5,,,,,,150,160,165,165,,,,,,,165,90,B,Raw,No,Pro Open,29,1988-07-17
3,M,Sergey Lvov,Сергей Львов,88.8,,,,,,135,142.5,-152.5,142.5,,,,,,,142.5,90,B,Raw,No,Pro Open,39,1979-05-05
4,M,Ivan Romadin,Иван Ромадин,87.9,,,,,,130,135,-137.5,135,,,,,,,135,90,B,Raw,No,Pro Open,26,1992-06-18
1,M,Aleksandr Popkov,Александр Попков,87.5,,,,,,110,-115,,110,,,,,,,110,90,B,Raw,No,Pro Masters 40-49,45,1973-05-13
1,M,Vladimir Kurbasov,Владимир Курбасов,88.9,,,,,,115,120,-125,120,,,,,,,120,90,B,Raw,No,Pro Masters 50-59,59,1959-06-06
1,M,Nikolay Polyakov,Николай Поляков,99.5,,,,,,175,180,185,185,,,,,,,185,100,B,Raw,No,Pro Open,34,1984-05-21
1,M,Sergey Vedenidov,Сергей Веденидов,108.8,,,,,,175,185,-190,185,,,,,,,185,110,B,Raw,No,Pro Open,38,1979-09-23
2,M,Artem Epishin,Артем Епишин,108.5,,,,,,170,175,-180,175,,,,,,,175,110,B,Raw,No,Pro Open,36,1982-04-16
3,M,Viktor Arapov,Виктор Арапов,107,,,,,,100,110,-115,110,,,,,,,110,110,B,Raw,No,Pro Open,37,1981-06-22
1,M,Vladimir Nasedkin,Владимир Наседкин,116.9,,,,,,165,172.5,180,180,,,,,,,180,125,B,Raw,No,Pro Open,32,1985-07-02
1,M,Kirill Gavrilov,Кирилл Гаврилов,133.2,,,,,,190,205,215,215,,,,,,,215,140,B,Single-ply,No,Pro Juniors,21,1997-05-21
1,F,Elena Doroshina,Елена Дорошина,55.4,,,,,,70,75,80,80,,,,,,,80,56,B,Multi-ply,No,Pro Open,43,1975-06-01
1,M,Aleksandr Grishanov,Александр Гришанов,80.5,,,,,,192.5,202.5,,202.5,,,,,,,202.5,82.5,B,Multi-ply,No,Pro Open,38,1979-09-04
1,F,Olga Golikova,Ольга Голикова,44.25,,,,,,,,,,,75,,,75,,75,48,D,Raw,No,Pro Open,32,1985-12-06
DQ,F,Yuliya Abramova,Юлия Абрамова,55.5,,,,,,,,,,,-85,-90,,,,,56,D,Raw,No,Pro Open,30,1987-12-11
1,F,Elena Abramova,Елена Абрамова,58.2,,,,,,,,,,,80,85,90,90,,90,60,D,Raw,No,Pro Open,33,1985-05-29
1,F,Marina Andreeva,Марина Андреева,62.8,,,,,,,,,,,115,125,-130,125,,125,67.5,D,Raw,No,Pro Juniors,22,1996-02-07
1,F,Ekaterina Uvarova,Екатерина Уварова,66.2,,,,,,,,,,,140,-150,-150,140,,140,67.5,D,Raw,No,Pro Open,28,1989-11-10
2,F,Anastasiya Melnik,Анастасия Мельник,67.5,,,,,,,,,,,120,-130,-130,120,,120,67.5,D,Raw,No,Pro Open,22,1996-06-16
1,M,Aleksandr Konovalov,Александр Коновалов,79.6,,,,,,,,,,,230,245,-260,245,,245,82.5,D,Raw,No,Pro Open,34,1983-09-09
2,M,Evgeniy Ansimov,Евгений Ансимов,79.5,,,,,,,,,,,-160,160,-167.5,160,,160,82.5,D,Raw,No,Pro Open,28,1990-03-20
1,M,Dmitriy Maleev,Дмитрий Малеев,86,,,,,,,,,,,250,262.5,272.5,272.5,-290,272.5,90,D,Raw,No,Pro Open,28,1990-02-07
1,M,Mikhail Prikhodko,Михаил Приходько,98.8,,,,,,,,,,,225,245,272.5,272.5,,272.5,100,D,Raw,No,Pro Open,26,1992-03-22
2,M,Denis Kharybin,Денис Харыбин,97.2,,,,,,,,,,,230,-240,-240,230,,230,100,D,Raw,No,Pro Open,37,1980-07-12
3,M,Nikolay Polyakov,Николай Поляков,99.5,,,,,,,,,,,220,-240,-240,220,,220,100,D,Raw,No,Pro Open,34,1984-05-21
1,M,Viktor Arapov,Виктор Арапов,107,,,,,,,,,,,180,200,-210,200,,200,110,D,Raw,No,Pro Open,37,1981-06-22
