Sex,Equipment,Division,WeightClassKg,Name,Best3BenchKg,Best3DeadliftKg,TotalKg,BodyweightKg,Age,Event,Place
F,Raw,Amateur Masters 40-44,90+,Birgit Elssner,57.52,147.42,205.02,152.86,40,BD,1
F,Raw,Amateur Masters 40-44,90+,Birgit Elssner,,147.42,147.42,152.86,40,D,1
M,Raw,Amateur Teen 16-17,90,Nicholas Robichaud,110,234.96,345.18,88,17,BD,1
M,Raw,Amateur Open,125,Martin Plourde,240.49,312.53,552.93,114.31,27,BD,1
M,Raw,Pro Open,90,Matthew Peck,117.48,222.71,340.19,85.73,31,BD,1
M,Raw,Pro Masters 40-44,100,Greg Doucette,230.02,307.54,537.51,97.98,41,BD,1
M,Raw,AmateurOpen,90,Andrew Carlos,127.5,,127.5,88.45,33,B,1
