Division,WeightClassKg,Place,Name,Team,BodyweightKg,Best3SquatKg,Best3BenchKg,Best3DeadliftKg,TotalKg,Equipment,Event,Sex
Boys,56,1,Todd Henderson,Richardson Lake Highlands,55.34,142.88,88.45,140.61,371.95,Single-ply,SBD,M
Boys,60,1,Ahmed Lawend,Richardson,58.06,92.99,61.23,115.67,269.89,Single-ply,SBD,M
Boys,67.5,1,Noel Whitehead,Richardson Lake Highlands,62.6,154.22,81.65,158.76,394.63,Single-ply,SBD,M
Boys,67.5,2,Kieran Wright,Garland Naaman Forest,63.5,136.08,90.72,158.76,385.55,Single-ply,SBD,M
Boys,67.5,3,Kam Lewis,Richardson,67.13,142.88,88.45,147.42,378.75,Single-ply,SBD,M
Boys,67.5,4,Matua Mauga,Garland Naaman Forest,66.68,136.08,72.57,149.69,358.34,Single-ply,SBD,M
Boys,67.5,5,Anthony Bohling,Richardson Pearce,67.13,115.67,65.77,129.27,310.71,Single-ply,SBD,M
Boys,67.5,6,Trent Williams,Richardson Pearce,65.32,106.59,61.23,120.2,288.03,Single-ply,SBD,M
Boys,67.5,DQ,Josiah Ingram,Richardson,65.77,,,,,Single-ply,SBD,M
Boys,75,1,Dylan Enriquez,Garland Naaman Forest,69.4,165.56,95.25,181.44,442.25,Single-ply,SBD,M
Boys,75,2,Dequan Landon,Richardson Pearce,72.57,165.56,92.99,174.63,433.18,Single-ply,SBD,M
Boys,75,3,Idris Tanner,Richardson Berkner,69.85,147.42,92.99,174.63,415.04,Single-ply,SBD,M
Boys,75,4,Kevin Velasco,Richardson,73.48,161.03,79.38,174.63,415.04,Single-ply,SBD,M
Boys,75,5,Jackson Mize,Richardson Pearce,70.31,102.06,92.99,167.83,362.87,Single-ply,SBD,M
Boys,75,6,Francisco Rodriguez,Richardson Berkner,73.21,102.06,88.45,165.56,356.07,Single-ply,SBD,M
Boys,75,7,Lawrence Abu,Richardson,72.12,124.74,81.65,124.74,331.12,Single-ply,SBD,M
Boys,75,8,Daniel Kopoi,Richardson Berkner,74.48,142.88,70.31,,213.19,Single-ply,SB,M
Boys,82.5,1,Nicholas Abengowe,Garland Naaman Forest,79.38,185.97,97.52,197.31,480.81,Single-ply,SBD,M
Boys,82.5,2,Deaundrea Smith,Richardson Lake Highlands,78.02,131.54,83.91,170.1,385.55,Single-ply,SBD,M
Boys,82.5,3,Quamarie Wells,Richardson Berkner,77.11,113.4,95.25,158.76,367.41,Single-ply,SBD,M
Boys,82.5,4,Hunter Feinman,Richardson Pearce,82.1,102.06,79.38,129.27,310.71,Single-ply,SBD,M
Boys,82.5,5,Madisen Gattis,Richardson,77.11,133.81,77.11,,210.92,Single-ply,SB,M
Boys,90,1,Mitch Coulson,Richardson Lake Highlands,82.55,192.78,95.25,197.31,485.34,Single-ply,SBD,M
Boys,90,2,Osadolo Osawemwenze,Richardson Lake Highlands,88,183.7,104.33,197.31,485.34,Single-ply,SBD,M
Boys,90,3,Adrian Brown,Garland Naaman Forest,88,176.9,102.06,204.12,483.08,Single-ply,SBD,M
Boys,90,4,Kaleb Knox,Richardson,85.28,170.1,106.59,163.29,439.98,Single-ply,SBD,M
Boys,90,5,Chance Price,Richardson Pearce,88.45,174.63,106.59,156.49,437.72,Single-ply,SBD,M
Boys,90,6,Jymmy Acosta,Richardson Pearce,88,149.69,86.18,151.95,387.82,Single-ply,SBD,M
Boys,90,DQ,Judah Allred,Richardson,87.54,,,,,Single-ply,SBD,M
Boys,100,1,Jack Hutton,Richardson Lake Highlands,98.43,204.12,136.08,226.8,566.99,Single-ply,SBD,M
Boys,100,2,Kareem Campbell,Richardson Pearce,92.08,195.04,136.08,174.63,505.76,Single-ply,SBD,M
Boys,100,3,Caleb Danielson,Richardson,95.71,188.24,111.13,206.38,505.76,Single-ply,SBD,M
Boys,100,4,Abdulhadi Darkazalli,Garland Naaman Forest,98.88,183.7,97.52,204.12,485.34,Single-ply,SBD,M
Boys,100,5,Brandon Markle,Garland Naaman Forest,91.17,183.7,106.59,183.7,474,Single-ply,SBD,M
Boys,100,6,Andy Jordan,Richardson Lake Highlands,92.08,142.88,102.06,174.63,419.57,Single-ply,SBD,M
Boys,100,7,Rodolpho Ramirez,Richardson Pearce,97.52,136.08,61.23,142.88,340.19,Single-ply,SBD,M
Boys,110,1,Khyree Ward,Garland Naaman Forest,103.87,235.87,122.47,219.99,578.33,Single-ply,SBD,M
Boys,110,2,Durim Negron,Garland Naaman Forest,107.5,215.46,129.27,192.78,537.51,Single-ply,SBD,M
Boys,110,3,Azion Washington,Richardson Lake Highlands,109.32,183.7,108.86,226.8,519.36,Single-ply,SBD,M
Boys,110,4,Zaydrion Lusk,Richardson Berkner,106.5,204.12,113.4,183.7,501.22,Single-ply,SBD,M
Boys,110,5,Keldred Johnson,Garland Naaman Forest,103.42,197.31,97.52,204.12,498.95,Single-ply,SBD,M
Boys,110,6,Jackson Versfelt,Richardson Lake Highlands,105.23,176.9,97.52,190.51,464.93,Single-ply,SBD,M
Boys,110,7,Kane Robinson,Richardson Berkner,100.7,142.88,95.25,158.76,396.89,Single-ply,SBD,M
Boys,110,8,John Velez,Richardson Berkner,105.96,147.42,108.86,120.2,376.48,Single-ply,SBD,M
Boys,110,9,Ryan Uzick,Richardson Pearce,105.23,104.33,56.7,111.13,272.16,Single-ply,SBD,M
Boys,125,1,Latrell Smith,Richardson Lake Highlands,122.47,213.19,113.4,226.8,553.38,Single-ply,SBD,M
Boys,125,2,Kyron Robinson-Woods,Richardson Berkner,120.34,183.7,104.33,183.7,471.74,Single-ply,SBD,M
Boys,125,3,Drew Moss,Richardson,124.74,142.88,92.99,174.63,410.5,Single-ply,SBD,M
Boys,125,4,Tommy Dunn,Garland Naaman Forest,122.92,188.24,,,188.24,Single-ply,S,M
Boys,125,DQ,Alex Salgado,Richardson Berkner,118.48,,,,,Single-ply,SBD,M
Boys,125,DQ,Westin Stringer,Richardson,117.48,,,,,Single-ply,SBD,M
Boys,125+,1,Jonathan Batts,Richardson Berkner,126.55,185.97,131.54,204.12,521.63,Single-ply,SBD,M
Boys,125+,2,Jalon Fennessee,Richardson Lake Highlands,129.73,210.92,97.52,172.37,480.81,Single-ply,SBD,M
Boys,125+,3,Braylyn Tennon,Richardson Berkner,137.89,165.56,83.91,174.63,424.11,Single-ply,SBD,M
Boys,125+,4,Canyon Wadsworth,Richardson Pearce,125.19,115.67,79.38,142.88,337.93,Single-ply,SBD,M
