Division,WeightClassKg,Place,Name,Team,BodyweightKg,Best3SquatKg,Best3BenchKg,Best3DeadliftKg,TotalKg,Equipment,Event,Sex
Boys,52,1,Boone Beyer,Magnolia,50.35,113.4,56.7,108.86,278.96,Single-ply,SBD,M
Boys,52,2,Diego Malm,Magnolia,49.08,106.59,58.97,111.13,276.69,Single-ply,SBD,M
Boys,52,3,Landon Bednarz,Magnolia,49.67,97.52,54.43,95.25,247.21,Single-ply,SBD,M
Boys,56,1,Cameron Yale,Magnolia,55.2,142.88,79.38,136.08,358.34,Single-ply,SBD,M
Boys,56,2,Joseph Tellez,Magnolia,55.02,120.2,61.23,136.08,317.51,Single-ply,SBD,M
Boys,56,3,Erick Julio,Houston Northbrook,55.7,117.93,58.97,136.08,312.98,Single-ply,SBD,M
Boys,56,4,Jackson Grisham,Montgomery Lake Creek,51.94,97.52,61.23,104.33,263.08,Single-ply,SBD,M
Boys,56,5,Noah Staton,Conroe The Woodlands,55.07,90.72,56.7,106.59,254.01,Single-ply,SBD,M
Boys,60,1,Tyler Boggs,Magnolia,59.87,170.1,88.45,163.29,421.84,Single-ply,SBD,M
Boys,60,2,Celestino Rubio,Bryan Rudder,59.42,158.76,79.38,181.44,419.57,Single-ply,SBD,M
Boys,60,3,Joseph Stokes,Montgomery Lake Creek,59.6,133.81,81.65,158.76,374.21,Single-ply,SBD,M
Boys,60,4,Gavin Mason,Magnolia,58.97,138.35,79.38,145.15,362.87,Single-ply,SBD,M
Boys,60,DQ,Reagan Larson,Magnolia,59.78,133.81,,,,Single-ply,SBD,M
Boys,67.5,1,Jacob Reece,Bastrop,67.04,170.1,102.06,170.1,442.25,Single-ply,SBD,M
Boys,67.5,2,Sutton Linsdley,Bastrop,62.78,145.15,113.4,154.22,412.77,Single-ply,SBD,M
Boys,67.5,3,Ethan Hall,College Station,65.41,174.63,79.38,158.76,412.77,Single-ply,SBD,M
Boys,67.5,4,Cole Hebert,Magnolia,64.73,147.42,92.99,156.49,396.89,Single-ply,SBD,M
Boys,67.5,5,Jesus Loya,Magnolia,63.41,147.42,83.91,161.03,392.36,Single-ply,SBD,M
Boys,67.5,6,Carter Grom,College Station,66.09,145.15,65.77,142.88,353.8,Single-ply,SBD,M
Boys,67.5,7,Lane Blevins,Bryan,60.96,136.08,68.04,138.35,342.46,Single-ply,SBD,M
Boys,67.5,8,Leonardo Dominguez,Bastrop,60.74,102.06,47.63,72.57,222.26,Single-ply,SBD,M
Boys,67.5,DQ,William Schneringer,Bryan,64.41,,,,,Single-ply,SBD,M
Boys,67.5,DQ,Kody Chambers,Bryan,61.69,95.25,,,,Single-ply,SBD,M
Boys,75,1,Jaden Schroeder,Huntsville,70.03,197.31,117.93,206.38,521.63,Single-ply,SBD,M
Boys,75,2,Cody McLaren,Huntsville,74.84,181.44,113.4,190.51,485.34,Single-ply,SBD,M
Boys,75,3,Darick Henderson,Navasota,67.68,174.63,111.13,195.04,480.81,Single-ply,SBD,M
Boys,75,4,Sloan Vavra,Bryan,74.84,174.63,102.06,172.37,449.06,Single-ply,SBD,M
Boys,75,5,Kody Perez,Magnolia,74.34,176.9,92.99,172.37,442.25,Single-ply,SBD,M
Boys,75,6,Justin Sandstedt,Magnolia,71.71,167.83,79.38,174.63,421.84,Single-ply,SBD,M
Boys,75,7,Donovan Thomas,Navasota,68.86,147.42,97.52,167.83,412.77,Single-ply,SBD,M
Boys,75,8,Patrick Brazzell,Madisonville,70.03,149.69,88.45,167.83,405.97,Single-ply,SBD,M
Boys,75,9,Matthew Eason,Madisonville,68.81,127.01,95.25,170.1,392.36,Single-ply,SBD,M
Boys,75,10,Creed Whitfill,Bastrop,68.95,142.88,77.11,154.22,374.21,Single-ply,SBD,M
Boys,75,11,Jaylen Myles,Navasota,71.21,161.03,79.38,113.4,353.8,Single-ply,SBD,M
Boys,75,12,Ty'Drayvion Hester,Navasota,71.62,133.81,70.31,129.27,333.39,Single-ply,SBD,M
Boys,75,13,Jessie Valadez,Navasota,69.22,106.59,61.23,92.99,260.82,Single-ply,SBD,M
Boys,75,DQ,Carson Marshall,Bryan,73.94,86.18,,,,Single-ply,SBD,M
Boys,75,DQ,Preston Pugh,Montgomery Lake Creek,73.8,204.12,,,,Single-ply,SBD,M
Boys,75,DQ,Christian Ream,Montgomery Lake Creek,73.03,174.63,,,,Single-ply,SBD,M
Boys,75,DQ,Malcolm Manley,Bryan Rudder,72.48,154.22,,,,Single-ply,SBD,M
Boys,75,DQ,Collin Chandler,Bryan Rudder,72.17,145.15,,,,Single-ply,SBD,M
Boys,75,DQ,Davis Rhame,Conroe The Woodlands,71.76,124.74,,,,Single-ply,SBD,M
Boys,82.5,1,Dj McCoy,Montgomery,81.51,229.06,108.86,229.06,566.99,Single-ply,SBD,M
Boys,82.5,2,James Ayers,Bryan Rudder,78.52,195.04,127.01,192.78,514.83,Single-ply,SBD,M
Boys,82.5,3,Rodrigo Valdez,College Station,80.78,208.65,113.4,190.51,512.56,Single-ply,SBD,M
Boys,82.5,4,Alvin Dunn,Bryan Rudder,76.43,195.04,99.79,199.58,494.42,Single-ply,SBD,M
Boys,82.5,5,Asa Surface,Madisonville,77.11,172.37,106.59,199.58,478.54,Single-ply,SBD,M
Boys,82.5,6,Hunter Delahoussaye,Montgomery,78.93,185.97,108.86,183.7,478.54,Single-ply,SBD,M
Boys,82.5,7,Kevin Perez,Magnolia,79.11,183.7,113.4,172.37,469.47,Single-ply,SBD,M
Boys,82.5,8,Mason VonGonten,College Station,79.2,181.44,104.33,172.37,458.13,Single-ply,SBD,M
Boys,82.5,9,A J Hirsekorn,Montgomery,74.93,183.7,83.91,176.9,444.52,Single-ply,SBD,M
Boys,82.5,10,Zach Downs,Montgomery Lake Creek,76.43,145.15,104.33,174.63,424.11,Single-ply,SBD,M
Boys,82.5,11,Hunter Kitchens,Magnolia,80.15,158.76,86.18,165.56,410.5,Single-ply,SBD,M
Boys,82.5,12,Keaton Rue,Conroe The Woodlands,78.65,149.69,97.52,158.76,405.97,Single-ply,SBD,M
Boys,82.5,13,Makiyah Gilford,Conroe The Woodlands,76.84,149.69,97.52,145.15,392.36,Single-ply,SBD,M
Boys,82.5,14,Zachary Brigner,Navasota,82.01,156.49,77.11,142.88,376.48,Single-ply,SBD,M
Boys,90,1,Taylor Lipscy,Conroe The Woodlands,82.83,244.94,142.88,238.14,625.96,Single-ply,SBD,M
Boys,90,2,Sean Dudo,College Station,87.63,219.99,140.61,195.04,555.65,Single-ply,SBD,M
Boys,90,3,Nick McDaniel,Bryan,88.77,204.12,136.08,204.12,544.31,Single-ply,SBD,M
Boys,90,4,Miles Tatum,Huntsville,87.32,206.38,120.2,204.12,530.7,Single-ply,SBD,M
Boys,90,5,Jordan Brown,Huntsville,88.45,204.12,129.27,195.04,528.44,Single-ply,SBD,M
Boys,90,6,Jude Dennis,Bastrop,87.72,192.78,115.67,210.92,519.36,Single-ply,SBD,M
Boys,90,7,Blaine Corekin,Conroe The Woodlands,85.91,195.04,122.47,199.58,517.1,Single-ply,SBD,M
Boys,90,8,Kolbe Cashion,College Station,86.18,208.65,117.93,190.51,517.1,Single-ply,SBD,M
Boys,90,9,Wyatt Kelly,Montgomery,86.59,192.78,129.27,192.78,514.83,Single-ply,SBD,M
Boys,90,10,Logan Ganskey,Bastrop,87.95,188.24,120.2,204.12,512.56,Single-ply,SBD,M
Boys,90,11,Zac Cooper,Montgomery,88.36,163.29,120.2,204.12,487.61,Single-ply,SBD,M
Boys,90,12,Tanner Stone,College Station,89.58,185.97,124.74,170.1,480.81,Single-ply,SBD,M
Boys,90,13,Latel Sweat,Huntsville,83.37,167.83,111.13,172.37,451.32,Single-ply,SBD,M
Boys,90,14,Angel Valdez,Waller,87.86,158.76,122.47,163.29,444.52,Single-ply,SBD,M
Boys,90,15,Andrew Larkworthy,Conroe The Woodlands,82.51,156.49,113.4,167.83,437.72,Single-ply,SBD,M
Boys,90,16,Cade Colwell,Madisonville,86.86,167.83,86.18,181.44,435.45,Single-ply,SBD,M
Boys,90,17,Aden Enekes,Bryan,85.32,145.15,90.72,145.15,381.02,Single-ply,SBD,M
Boys,90,18,Charles McLaughlin,Bryan,86.68,117.93,77.11,149.69,344.73,Single-ply,SBD,M
Boys,90,DQ,Jack Basham,Montgomery Lake Creek,83.32,192.78,120.2,,,Single-ply,SBD,M
Boys,90,DQ,Colby Lord,Montgomery Lake Creek,89.45,226.8,,,,Single-ply,SBD,M
Boys,100,1,Corban Rodriguez,Madisonville,98.47,263.08,165.56,251.74,680.39,Single-ply,SBD,M
Boys,100,2,Desmond Murphy,Bryan Rudder,98.84,249.48,131.54,226.8,607.81,Single-ply,SBD,M
Boys,100,3,Micheil Harrell,Madisonville,97.98,226.8,131.54,219.99,578.33,Single-ply,SBD,M
Boys,100,4,Ethan Williams,Madisonville,91.13,195.04,108.86,222.26,526.17,Single-ply,SBD,M
Boys,100,5,Q Riles,Huntsville,95.3,215.46,106.59,197.31,519.36,Single-ply,SBD,M
Boys,100,6,Rylan Ritch,Magnolia,93.44,208.65,120.2,188.24,517.1,Single-ply,SBD,M
Boys,100,7,Colton Windsor,Conroe The Woodlands,96.48,201.85,102.06,204.12,508.02,Single-ply,SBD,M
Boys,100,8,Noe Torres,Bastrop,96.39,201.85,113.4,188.24,503.49,Single-ply,SBD,M
Boys,100,9,Mitchell Nickles,Waller,94.08,174.63,120.2,204.12,498.95,Single-ply,SBD,M
Boys,100,10,Anthony Martinez,Magnolia,97.11,199.58,104.33,183.7,487.61,Single-ply,SBD,M
Boys,100,11,Charlie Stutts,Bryan,96.98,172.37,113.4,163.29,449.06,Single-ply,SBD,M
Boys,100,12,Trey Turna,Montgomery,93.12,156.49,92.99,181.44,430.91,Single-ply,SBD,M
Boys,100,13,Jacob Incardonia,Bryan,92.08,154.22,95.25,176.9,426.38,Single-ply,SBD,M
Boys,100,14,Prince Echaverry,Houston Northbrook,97.52,165.56,102.06,154.22,421.84,Single-ply,SBD,M
Boys,100,15,Sam Stevens,Madisonville,99.02,147.42,79.38,142.88,369.68,Single-ply,SBD,M
Boys,100,DQ,Seth Downs,Montgomery Lake Creek,92.03,172.37,136.08,,,Single-ply,SBD,M
Boys,110,1,Dalton Taylor,Magnolia,108,263.08,174.63,208.65,646.37,Single-ply,SBD,M
Boys,110,2,Blaine Bright,Bryan,107.73,235.87,154.22,240.4,630.49,Single-ply,SBD,M
Boys,110,3,Luke Miles,College Station,107.73,233.6,131.54,238.14,603.28,Single-ply,SBD,M
Boys,110,4,Jerimiah Garcia,Houston Northbrook,107.41,254.01,136.08,204.12,594.21,Single-ply,SBD,M
Boys,110,5,James Goodman,Montgomery Lake Creek,106.28,213.19,156.49,217.72,587.4,Single-ply,SBD,M
Boys,110,6,Carlos Ortiz,Magnolia,106.59,233.6,120.2,210.92,564.72,Single-ply,SBD,M
Boys,110,7,Andrew Morrow,Magnolia,107.68,199.58,104.33,179.17,483.08,Single-ply,SBD,M
Boys,110,8,Gavin Bass,College Station,108.23,195.04,136.08,147.42,478.54,Single-ply,SBD,M
Boys,110,9,Cade Farrar,College Station,109,195.04,102.06,181.44,478.54,Single-ply,SBD,M
Boys,110,10,Grant Goebel,Magnolia,103.33,179.17,102.06,188.24,469.47,Single-ply,SBD,M
Boys,110,11,Zach King,Bastrop,104.87,183.7,95.25,183.7,462.66,Single-ply,SBD,M
Boys,110,12,Logan Beverung,Montgomery Lake Creek,109.23,174.63,97.52,181.44,453.59,Single-ply,SBD,M
Boys,110,13,Axel Andrade,Conroe The Woodlands,104.78,174.63,83.91,185.97,444.52,Single-ply,SBD,M
Boys,110,14,Jason Batiste,Bryan Rudder,102.6,185.97,95.25,149.69,430.91,Single-ply,SBD,M
Boys,110,15,Johnathan Edmiston,Montgomery,109,145.15,77.11,154.22,376.48,Single-ply,SBD,M
Boys,110,16,Shane White,Montgomery,103.37,131.54,79.38,161.03,371.95,Single-ply,SBD,M
Boys,125,1,Clifford Chambers,Bryan Rudder,123.6,340.19,172.37,226.8,739.36,Single-ply,SBD,M
Boys,125,2,Dillon Brooks,Huntsville,123.69,260.82,158.76,260.82,680.39,Single-ply,SBD,M
Boys,125,3,Tyrone Wilson,Bastrop,120.11,242.67,156.49,254.01,653.17,Single-ply,SBD,M
Boys,125,4,Hillario Rodriguez,Navasota,120.66,249.48,147.42,229.06,625.96,Single-ply,SBD,M
Boys,125,5,Kade Bond,Magnolia,124.42,215.46,154.22,226.8,596.47,Single-ply,SBD,M
Boys,125,6,Eliaser Tamayo,Huntsville,111.18,204.12,131.54,224.53,560.19,Single-ply,SBD,M
Boys,125,7,Kevin Kindt,Bryan Rudder,114.58,219.99,129.27,197.31,546.58,Single-ply,SBD,M
Boys,125,8,Al Angeles,Madisonville,115.35,181.44,113.4,208.65,503.49,Single-ply,SBD,M
Boys,125,9,Cayden Scott,Bastrop,123.38,192.78,111.13,185.97,489.88,Single-ply,SBD,M
Boys,125,10,Justin Snivley,Montgomery,114.21,183.7,108.86,195.04,487.61,Single-ply,SBD,M
Boys,125,11,Jose Lopez,Navasota,113.85,115.67,74.84,161.03,351.53,Single-ply,SBD,M
Boys,125+,1,Brandon Bobino,Huntsville,168.92,288.03,165.56,244.94,698.53,Single-ply,SBD,M
Boys,125+,2,Cedric Harris,Magnolia,139.16,235.87,147.42,249.48,632.76,Single-ply,SBD,M
Boys,125+,3,Atyias Casteel,Huntsville,132.68,254.01,151.95,204.12,610.08,Single-ply,SBD,M
Boys,125+,4,Jakobe Nutall,Bryan Rudder,138.44,226.8,136.08,238.14,601.01,Single-ply,SBD,M
Boys,125+,5,Talon Crouse,Bryan,135.71,226.8,127.01,208.65,562.45,Single-ply,SBD,M
Boys,125+,6,Nicholas Prado,Houston Northbrook,133.86,215.46,133.81,199.58,548.85,Single-ply,SBD,M
Boys,125+,7,Jesus Perales,Houston Northbrook,127.69,226.8,120.2,183.7,530.7,Single-ply,SBD,M
Boys,125+,8,Jessie Hoke,Huntsville,142.02,217.72,108.86,195.04,521.63,Single-ply,SBD,M
Boys,125+,9,Josh Lunde,Conroe The Woodlands,142.2,147.42,79.38,142.88,369.68,Single-ply,SBD,M
Boys,125+,NS,Isaac Almaraz,College Station,,,,,,Single-ply,SBD,M
