Division,WeightClassKg,Place,Name,Team,BodyweightKg,Best3SquatKg,Best3BenchKg,Best3DeadliftKg,TotalKg,Equipment,Event,Sex
Boys,52,1,Damian Gonzalez,Roma,51.48,163.29,95.25,172.37,430.91,Single-ply,SBD,M
Boys,52,2,Héctor Ramírez,Roma,49.21,124.74,70.31,140.61,335.66,Single-ply,SBD,M
Boys,52,3,Juan Sanchez,Laredo Cigarroa,50.8,117.93,81.65,124.74,324.32,Single-ply,SBD,M
Boys,52,4,Rodrigo Trejo,Laredo Cigarroa,51.03,111.13,79.38,124.74,315.25,Single-ply,SBD,M
Boys,52,5,Alex Comparan,Laredo Nixon,51.71,117.93,65.77,111.13,294.84,Single-ply,SBD,M
Boys,52,6,Alexander Moncada,Laredo Martin,51.48,79.38,38.56,106.59,224.53,Single-ply,SBD,M
Boys,56,1,Everardo Garcia,Roma,53.98,188.24,97.52,181.44,467.2,Single-ply,SBD,M
Boys,56,2,Silverio Martinez,Roma,53.52,124.74,61.23,136.08,322.05,Single-ply,SBD,M
Boys,56,3,Jacent Cantu,Dilley,52.62,111.13,54.43,136.08,301.64,Single-ply,SBD,M
Boys,56,4,Zackary Palomo,Laredo Martin,53.07,97.52,49.9,129.27,276.69,Single-ply,SBD,M
Boys,56,5,Omar Estrada,Laredo Nixon,53.98,68.04,43.09,127.01,238.14,Single-ply,SBD,M
Boys,60,1,Jesus Garza,Laredo Cigarroa,58.29,111.13,61.23,111.13,283.5,Single-ply,SBD,M
Boys,60,2,Oscar Vez,Laredo Cigarroa,57.15,102.06,61.23,106.59,269.89,Single-ply,SBD,M
Boys,67.5,1,Alex De La Rosa,Dilley,66.68,140.61,106.59,149.69,396.89,Single-ply,SBD,M
Boys,67.5,2,Lloyd Soto,Laredo United,66.22,149.69,86.18,158.76,394.63,Single-ply,SBD,M
Boys,67.5,3,Noel Velasquez,Laredo Johnson,65.54,165.56,72.57,154.22,392.36,Single-ply,SBD,M
Boys,67.5,4,Luis Guerra,Laredo Nixon,64.64,147.42,72.57,145.15,365.14,Single-ply,SBD,M
Boys,67.5,5,Jj Hernandez,Laredo Nixon,60.55,136.08,74.84,151.95,362.87,Single-ply,SBD,M
Boys,67.5,6,Gabriel Rios,Roma,61.23,131.54,72.57,131.54,335.66,Single-ply,SBD,M
Boys,67.5,7,Miguel Terrazas,Laredo Nixon,63.28,102.06,70.31,102.06,274.42,Single-ply,SBD,M
Boys,67.5,8,Jake Gutierrez,Laredo Cigarroa,66,81.65,65.77,111.13,258.55,Single-ply,SBD,M
Boys,67.5,9,Joshua Urbina,Laredo Martin,66.9,81.65,45.36,104.33,231.33,Single-ply,SBD,M
Boys,75,1,Raul Bermea,Laredo Johnson,73.48,204.12,113.4,210.92,528.44,Single-ply,SBD,M
Boys,75,2,Mark Santillan,Laredo Johnson,71.21,204.12,113.4,197.31,514.83,Single-ply,SBD,M
Boys,75,3,Joe Chick,Zapata,70.53,188.24,113.4,192.78,494.42,Single-ply,SBD,M
Boys,75,4,Carlos Gonzales,Dilley,71.89,192.78,95.25,183.7,471.74,Single-ply,SBD,M
Boys,75,5,Fabian Santos,Dilley,73.26,199.58,81.65,188.24,469.47,Single-ply,SBD,M
Boys,75,6,Perci Alvarez,Zapata,73.71,158.76,104.33,176.9,439.98,Single-ply,SBD,M
Boys,75,7,Ricardo Guerra,Laredo United South,71.44,158.76,92.99,174.63,426.38,Single-ply,SBD,M
Boys,75,8,Carlos Carrillo,Laredo Martin,74.39,151.95,88.45,161.03,401.43,Single-ply,SBD,M
Boys,75,9,Ryan Martel,Dilley,70.31,147.42,68.04,151.95,367.41,Single-ply,SBD,M
Boys,75,10,Albert Aguirre,Laredo Cigarroa,70.76,129.27,74.84,131.54,335.66,Single-ply,SBD,M
Boys,75,11,Adrian Garza,Zapata,73.94,127.01,70.31,136.08,333.39,Single-ply,SBD,M
Boys,75,12,Riley Puig,Laredo Alexander,73.71,117.93,65.77,127.01,310.71,Single-ply,SBD,M
Boys,82.5,1,David Saldana,Zapata,78.02,215.46,120.2,210.92,546.58,Single-ply,SBD,M
Boys,82.5,2,Fransisco Briones,Laredo United South,78.02,183.7,117.93,183.7,485.34,Single-ply,SBD,M
Boys,82.5,3,Baltazar Perez,Roma,78.7,174.63,104.33,174.63,453.59,Single-ply,SBD,M
Boys,82.5,4,Jesus Calderon,Laredo United,80.74,174.63,92.99,167.83,435.45,Single-ply,SBD,M
Boys,82.5,5,Pedro Lopez,Laredo United,79.15,170.1,86.18,176.9,433.18,Single-ply,SBD,M
Boys,82.5,6,Andrew Sosa,Laredo Nixon,82.1,158.76,86.18,181.44,426.38,Single-ply,SBD,M
Boys,82.5,7,Marcus Zavala,Laredo Martin,79.38,161.03,74.84,138.35,374.21,Single-ply,SBD,M
Boys,82.5,8,Eddie Garcia,Zapata,78.93,142.88,86.18,142.88,371.95,Single-ply,SBD,M
Boys,82.5,9,Sebastian Villagomez,Laredo Alexander,80.06,124.74,56.7,142.88,324.32,Single-ply,SBD,M
Boys,82.5,10,Ricardo Herrera,Laredo Alexander,80.51,117.93,61.23,142.88,322.05,Single-ply,SBD,M
Boys,82.5,11,Mark Zapata,Laredo Martin,82.1,120.2,74.84,124.74,319.78,Single-ply,SBD,M
Boys,82.5,12,Joe Saavedra,Laredo Cigarroa,76.43,131.54,72.57,113.4,317.51,Single-ply,SBD,M
Boys,82.5,13,Marcos Valadez,Laredo Johnson,80.74,113.4,77.11,127.01,317.51,Single-ply,SBD,M
Boys,90,1,Damian Gutierrez,Roma,88,213.19,145.15,222.26,580.6,Single-ply,SBD,M
Boys,90,2,Roel de los Santos,Zapata,86.86,188.24,111.13,208.65,508.02,Single-ply,SBD,M
Boys,90,3,Jordan Rock,Roma,86.41,183.7,104.33,183.7,471.74,Single-ply,SBD,M
Boys,90,4,Roberto Rincon,Laredo Martin,83.91,156.49,120.2,172.37,449.06,Single-ply,SBD,M
Boys,90,5,Matthew Delgado,Laredo United,86.64,183.7,81.65,183.7,449.06,Single-ply,SBD,M
Boys,90,6,Oscar Arreola,Laredo Martin,85.96,147.42,79.38,161.03,387.82,Single-ply,SBD,M
Boys,90,7,Santiago Olivares,Laredo Martin,88.22,151.95,70.31,161.03,383.29,Single-ply,SBD,M
Boys,90,8,Lauro Soto,Laredo Cigarroa,85.28,145.15,83.91,140.61,369.68,Single-ply,SBD,M
Boys,90,9,Braulio Solis,Laredo Martin,87.09,124.74,70.31,138.35,333.39,Single-ply,SBD,M
Boys,90,10,Rogelio Lara,Laredo Martin,85.96,106.59,65.77,140.61,312.98,Single-ply,SBD,M
Boys,90,11,Andrew Guerra,Laredo Alexander,82.78,113.4,65.77,122.47,301.64,Single-ply,SBD,M
Boys,90,12,Leroy Gutierrez,Laredo Martin,85.5,111.13,56.7,133.81,301.64,Single-ply,SBD,M
Boys,90,13,Oscar Beltran,Laredo Cigarroa,83.23,108.86,65.77,120.2,294.84,Single-ply,SBD,M
Boys,100,1,Aaron Ramirez,Dilley,91.4,226.8,120.2,183.7,530.7,Single-ply,SBD,M
Boys,100,2,Alejandro Ayala,Laredo United South,98.66,197.31,102.06,183.7,483.08,Single-ply,SBD,M
Boys,100,3,Max Blanco,Laredo Cigarroa,94.35,179.17,106.59,192.78,478.54,Single-ply,SBD,M
Boys,100,4,Leo Solis,Zapata,99.34,179.17,111.13,176.9,467.2,Single-ply,SBD,M
Boys,100,5,Jesus Garcia,Roma,95.03,181.44,95.25,185.97,462.66,Single-ply,SBD,M
Boys,100,6,Octavio Alcorta,Laredo Martin,92.99,183.7,90.72,183.7,458.13,Single-ply,SBD,M
Boys,100,7,George Dominguez,Laredo Nixon,92.08,129.27,79.38,165.56,374.21,Single-ply,SBD,M
Boys,100,8,Josafat Vasquez,Laredo Alexander,95.25,124.74,81.65,140.61,347,Single-ply,SBD,M
Boys,100,9,Augustin Meza,Laredo Alexander,98.88,111.13,72.57,163.29,347,Single-ply,SBD,M
Boys,100,10,Eric Sifuentes,Laredo Cigarroa,91.63,129.27,74.84,136.08,340.19,Single-ply,SBD,M
Boys,100,11,Emilio Alvarez,Laredo Alexander,95.03,142.88,63.5,124.74,331.12,Single-ply,SBD,M
Boys,100,12,Jay Crain,Dilley,93.67,104.33,63.5,111.13,278.96,Single-ply,SBD,M
Boys,100,13,Orlando Maciel,Laredo Martin,99.79,106.59,61.23,104.33,272.16,Single-ply,SBD,M
Boys,100,DQ,Max Marchan,Laredo Nixon,91.17,163.29,97.52,,,Single-ply,SBD,M
Boys,100,DQ,Jaime Garcia,Zapata,97.07,183.7,106.59,,,Single-ply,SBD,M
Boys,100,DQ,Gabriel Elizondo,Laredo Alexander,94.8,113.4,,,,Single-ply,SBD,M
Boys,100,DQ,Aidan Hinojosa,Laredo Alexander,98.66,138.35,79.38,,,Single-ply,SBD,M
Boys,110,1,Robert Ramos,Roma,105.23,249.48,127.01,204.12,580.6,Single-ply,SBD,M
Boys,110,2,Diego Montoya,Roma,109.09,231.33,138.35,204.12,573.79,Single-ply,SBD,M
Boys,110,3,Luis Rios,Laredo Johnson,108.86,215.46,117.93,217.72,551.11,Single-ply,SBD,M
Boys,110,4,Khalid Santiago,Laredo United South,108.18,231.33,106.59,208.65,546.58,Single-ply,SBD,M
Boys,110,5,Rolando Galaviz,Laredo Johnson,103.87,226.8,104.33,204.12,535.24,Single-ply,SBD,M
Boys,110,6,Javier Amador,Laredo Martin,108.18,215.46,97.52,176.9,489.88,Single-ply,SBD,M
Boys,110,7,Emiliano Martinez,Zapata,108.64,176.9,81.65,181.44,439.98,Single-ply,SBD,M
Boys,110,8,Kevin Molina,Laredo United South,105.01,138.35,111.13,181.44,430.91,Single-ply,SBD,M
Boys,110,9,Felipe Rodriguez,Laredo Cigarroa,102.74,151.95,92.99,163.29,408.23,Single-ply,SBD,M
Boys,110,10,Juan Cerna,Laredo Cigarroa,105.01,147.42,83.91,163.29,394.63,Single-ply,SBD,M
Boys,110,11,Miguel Gutierrez,Laredo United South,106.14,149.69,83.91,161.03,394.63,Single-ply,SBD,M
Boys,110,12,Justin Segovia,Laredo United South,102.74,158.76,72.57,156.49,387.82,Single-ply,SBD,M
Boys,110,13,Gerardo Enriquez,Laredo Alexander,107.95,138.35,86.18,147.42,371.95,Single-ply,SBD,M
Boys,110,14,Jorge Rivera,Laredo Cigarroa,104.1,120.2,83.91,145.15,349.27,Single-ply,SBD,M
Boys,110,15,Christian Jimenez,Laredo Alexander,107.95,108.86,79.38,131.54,319.78,Single-ply,SBD,M
Boys,110,16,Benito Mancillas,Laredo Cigarroa,100.24,104.33,65.77,145.15,315.25,Single-ply,SBD,M
Boys,110,17,Salvador Hernandez,Laredo Martin,108.64,97.52,58.97,140.61,297.1,Single-ply,SBD,M
Boys,110,DQ,Cesar Gutierrez,Laredo Cigarroa,108.41,156.49,,,,Single-ply,SBD,M
Boys,110,DQ,Carlos Gonzalez,Laredo United,108.86,,,,,Single-ply,SBD,M
Boys,125,1,Claudio Padilla,Laredo Johnson,124.06,254.01,136.08,249.48,639.57,Single-ply,SBD,M
Boys,125,2,Jorge Garcia,Laredo United South,122.24,249.48,142.88,226.8,619.15,Single-ply,SBD,M
Boys,125,3,Dustin Dominguez,Dilley,123.83,240.4,138.35,215.46,594.21,Single-ply,SBD,M
Boys,125,4,Martin Navarro,Zapata,116.12,226.8,145.15,215.46,587.4,Single-ply,SBD,M
Boys,125,5,Brian Gutierrez,Laredo Nixon,116.57,249.48,138.35,197.31,585.13,Single-ply,SBD,M
Boys,125,6,Laurencio Lopez,Roma,110.68,226.8,129.27,226.8,582.87,Single-ply,SBD,M
Boys,125,7,Arturo Alvarez,Laredo Cigarroa,115.67,183.7,115.67,185.97,485.34,Single-ply,SBD,M
Boys,125,8,Alonso Castillo,Laredo Cigarroa,121.79,201.85,102.06,172.37,476.27,Single-ply,SBD,M
Boys,125,9,Kayden Vega,Dilley,112.49,183.7,79.38,183.7,446.79,Single-ply,SBD,M
Boys,125,10,Mark Trujillo,Laredo United South,110.22,165.56,106.59,163.29,435.45,Single-ply,SBD,M
Boys,125,11,Marcus Vara,Laredo Martin,116.8,165.56,92.99,174.63,433.18,Single-ply,SBD,M
Boys,125,12,Vladimir Villanueva,Laredo United South,112.26,151.95,108.86,149.69,410.5,Single-ply,SBD,M
Boys,125,13,Anthony Salas,Laredo Nixon,115.67,142.88,88.45,165.56,396.89,Single-ply,SBD,M
Boys,125,DQ,Gerardo Gamboa,Laredo Martin,112.04,,,,,Single-ply,SBD,M
Boys,125+,1,Justin Trevino,Laredo Martin,140.16,272.16,129.27,215.46,616.89,Single-ply,SBD,M
Boys,125+,2,Sigifredo Sepulveda,Laredo Cigarroa,165.33,224.53,142.88,208.65,576.06,Single-ply,SBD,M
Boys,125+,3,Manuel Torres,Laredo Cigarroa,129.05,226.8,113.4,204.12,544.31,Single-ply,SBD,M
Boys,125+,4,Pablo Torrez,Laredo Johnson,161.48,226.8,102.06,199.58,528.44,Single-ply,SBD,M
Boys,125+,5,Juan Valadez,Laredo Martin,133.36,222.26,111.13,185.97,519.36,Single-ply,SBD,M
Boys,125+,6,Emmanuel Gomez,Laredo United South,135.85,183.7,106.59,176.9,467.2,Single-ply,SBD,M
Boys,125+,7,Juan Guerra,Laredo Alexander,142.88,172.37,90.72,204.12,467.2,Single-ply,SBD,M
Boys,125+,8,Raymond Torres,Zapata,139.71,167.83,115.67,156.49,439.98,Single-ply,SBD,M
Boys,125,9,Gerardo Gutierrez,Laredo Martin,124.96,120.2,52.16,136.08,308.44,Single-ply,SBD,M
Boys,,DQ,Allan Gutierrez,Laredo United South,,,,,,Single-ply,SBD,M
