Place,Name,Sex,Event,Division,WeightClassKg,Equipment,BirthYear,Team,State,BodyweightKg,Squat1Kg,Squat2Kg,Squat3Kg,Best3SquatKg,Bench1Kg,Bench2Kg,Bench3Kg,Best3BenchKg,Deadlift1Kg,Deadlift2Kg,Deadlift3Kg,Best3DeadliftKg,TotalKg
1,Joseph Theall,M,B,MR-HS,83,Raw,2003,,LA,74.90,,,,,62.5,67.5,72.5,72.5,,,,,72.5
1,Peyton Sittig,F,SBD,FR-HS,43,Raw,2003,,LA,42.30,25,32.5,37.5,37.5,20,22.5,27.5,27.5,60,67.5,-87.5,67.5,132.5
1,Xacaria Clark,F,SBD,FR-HS,47,Raw,2002,,LA,46.30,97.5,100,105,105.0,-50,50,-52.5,50.0,112.5,120,125,125.0,280
2,Lindsey Tyler,F,SBD,FR-HS,47,Raw,2003,,LA,44.20,52.5,-60,60,60.0,35,-40,-42.5,35.0,65,70,-72.5,70.0,165
1,Amaria Sapp,F,SBD,FR-HS,52,Raw,1999,,LA,49.70,112.5,115,-120,115.0,60,-65,-65,60.0,112.5,120,127.5,127.5,302.5
2,Sadie Zaunbrecher,F,SBD,FR-HS,52,Raw,1999,,LA,52.00,82.5,-87.5,-92.5,82.5,37.5,42.5,-47.5,42.5,105,115,125,125.0,250
3,Hope Mitchell,F,SBD,FR-HS,52,Raw,2001,,LA,50.80,70,75,82.5,82.5,35,37.5,-42.5,37.5,72.5,85,90,90.0,210
4,Rose Huynh,F,SBD,FR-HS,52,Raw,2000,Abbeville High School,LA,49.80,50,60,-62.5,60.0,25,30,-32.5,30.0,77.5,85,90,90.0,180
1,Brianna Collins,F,SBD,FR-HS,57,Raw,2001,,LA,55.60,105,107.5,110,110.0,55,-60,-60,55.0,115,122.5,132.5,132.5,297.5
2,Anh Khau,F,SBD,FR-HS,57,Raw,1999,Abbeville High School,LA,57.00,75,87.5,92.5,92.5,45,50,-55,50.0,85,97.5,105,105.0,247.5
3,Mariah Comeaux,F,SBD,FR-HS,57,Raw,2001,Abbeville High School,LA,55.50,57.5,65,-72.5,65.0,32.5,37.5,-40,37.5,80,87.5,92.5,92.5,195
4,Julie Prather,F,SBD,FR-HS,57,Raw,2002,,LA,56.10,42.5,45,50,50.0,22.5,27.5,-32.5,27.5,67.5,72.5,77.5,77.5,155
DQ,Layla Dupuy,F,SBD,FR-HS,57,Raw,2001,,LA,55.10,95,-100,-100,95.0,52.5,57.5,-60,57.5,-100,-100,-100,,
1,Kara Johnson,F,SBD,FR-HS,63,Raw,1999,,LA,58.90,117.5,120,-122.5,120.0,-65,65,-67.5,65.0,97.5,112.5,127.5,127.5,312.5
2,Makayla Jones,F,SBD,FR-HS,63,Raw,2001,Abbeville High School,LA,60.40,82.5,-92.5,-92.5,82.5,47.5,52.5,55,55.0,105,115,125,125.0,262.5
3,Mackenzie Nguyen,F,SBD,FR-HS,63,Raw,2000,Abbeville High School,LA,58.40,80,87.5,,87.5,40,45,47.5,47.5,95,102.5,107.5,107.5,242.5
4,Emily Romero,F,SBD,FR-HS,63,Raw,2001,,LA,60.10,80,87.5,-92.5,87.5,30,37.5,-40,37.5,77.5,82.5,87.5,87.5,212.5
1,Diamond Jones,F,SBD,FR-HS,72,Raw,1999,,LA,68.60,162.5,167.5,-170,167.5,77.5,80,82.5,82.5,145,157.5,165,165.0,415
2,Kamea Jones,F,SBD,FR-HS,72,Raw,2002,,LA,70.00,130,135,-140,135.0,70,-75,-75,70.0,120,127.5,137.5,137.5,342.5
3,Ashlynn Frick,F,SBD,FR-HS,72,Raw,2002,,GA,66.80,102.5,-107.5,-110,102.5,45,-52.5,-52.5,45.0,115,125,127.5,127.5,275
4,Ny'Gene Williams,F,SBD,FR-HS,72,Raw,2002,Abbeville High School,LA,69.70,77.5,87.5,-95,87.5,42.5,47.5,-50,47.5,100,107.5,120,120.0,255
5,Annalisya White,F,SBD,FR-HS,72,Raw,2003,,LA,63.60,85,90,-95,90.0,32.5,37.5,40,40.0,85,92.5,-97.5,92.5,222.5
6,Amber Stevens,F,SBD,FR-HS,72,Raw,2002,,GA,72.00,67.5,72.5,-82.5,72.5,37.5,-45,-45,37.5,95,-100,102.5,102.5,212.5
7,Emily Martin,F,SBD,FR-HS,72,Raw,2001,,GA,64.80,-65,65,75,75.0,35,37.5,-40,37.5,85,90,95,95.0,207.5
1,Kaylan Dunn,F,SBD,FR-HS,84,Raw,2000,,LA,82.80,-157.5,-157.5,157.5,157.5,95,-97.5,97.5,97.5,142.5,155,165,165.0,420
2,Mykelli Hudson-Brew,F,SBD,FR-HS,84,Raw,2001,,LA,82.00,137.5,-142.5,-142.5,137.5,57.5,62.5,-65,62.5,125,137.5,155,155.0,355
3,Kylie Arnaud,F,SBD,FR-HS,84,Raw,2002,,LA,80.40,85,95,107.5,107.5,47.5,-57.5,-57.5,47.5,92.5,105,117.5,117.5,272.5
4,Jayla Reaux,F,SBD,FR-HS,84,Raw,2003,Abbeville High School,LA,84.00,-75,75,87.5,87.5,47.5,55,-60,55.0,92.5,105,120,120.0,262.5
5,Bailey Deshotel,F,SBD,FR-HS,84,Raw,2003,,LA,80.30,82.5,95,110,110.0,42.5,47.5,-52.5,47.5,82.5,92.5,100,100.0,257.5
6,Hannah Barnett,F,SBD,FR-HS,84,Raw,2003,Abbeville High School,LA,77.10,80,-90,90,90.0,42.5,47.5,-50,47.5,97.5,107.5,115,115.0,252.5
7,Zakiya Johnson,F,SBD,FR-HS,84,Raw,2003,,LA,77.20,85,95,100,100.0,42.5,50,-52.5,50.0,80,87.5,92.5,92.5,242.5
1,Jamie Johnson,F,SBD,FR-HS,84+,Raw,2001,,LA,128.80,175,182.5,190,190.0,87.5,92.5,95,95.0,137.5,152.5,162.5,162.5,447.5
2,Brionna Ford,F,SBD,FR-HS,84+,Raw,2002,,LA,133.20,175,182.5,-187.5,182.5,-95,-95,95,95.0,142.5,160,167.5,167.5,445
3,Kennah Buatt,F,SBD,FR-HS,84+,Raw,2000,,LA,96.00,107.5,117.5,-125,117.5,65,-80,80,80.0,125,137.5,145,145.0,342.5
4,Madison Lingo,F,SBD,FR-HS,84+,Raw,2002,,LA,121.20,100,107.5,117.5,117.5,42.5,47.5,-52.5,47.5,112.5,127.5,147.5,147.5,312.5
5,Lauren Leedy,F,SBD,FR-HS,84+,Raw,2002,,GA,100.30,90,100,115,115.0,47.5,-55,-55,47.5,95,110,117.5,117.5,280
6,Gracie Miller,F,SBD,FR-HS,84+,Raw,2002,,LA,143.50,90,-97.5,100,100.0,42.5,47.5,52.5,52.5,90,100,105,105.0,257.5
7,Jazmine Deshotel,F,SBD,FR-HS,84+,Raw,2006,,LA,104.70,82.5,95,100,100.0,47.5,52.5,-65,52.5,82.5,92.5,97.5,97.5,250
DQ,Alexandra Sanders,F,SBD,FR-HS,84+,Raw,2001,,LA,99.20,-87.5,92.5,-97.5,92.5,45,-50,-50,45.0,-140,-140,-140,,
1,Carsen Collins,M,SBD,MR-HS,53,Raw,2002,,LA,51.90,115,122.5,-127.5,122.5,75,-80,80,80.0,135,142.5,147.5,147.5,350
2,Jeb Decuir,M,SBD,MR-HS,53,Raw,2002,,LA,52.10,102.5,107.5,-115,107.5,57.5,62.5,-65,62.5,110,120,-130,120.0,290
3,Zac Rambeau,M,SBD,MR-HS,53,Raw,2004,,LA,44.70,85,92.5,97.5,97.5,40,45,-47.5,45.0,85,95,-102.5,95.0,237.5
1,Charles Shuford,M,SBD,MR-HS,59,Raw,2002,Abbeville High School,LA,57.30,142.5,157.5,165,165.0,90,100,-107.5,100.0,165,182.5,197.5,197.5,462.5
2,Timori Shipley,M,SBD,MR-HS,59,Raw,2000,Abbeville High School,LA,58.80,117.5,125,137.5,137.5,77.5,85,-92.5,85.0,165,182.5,195,195.0,417.5
3,William O'Neal,M,SBD,MR-HS,59,Raw,2001,,LA,57.10,122.5,130,-137.5,130.0,87.5,97.5,102.5,102.5,142.5,150,165,165.0,397.5
4,Joseph Dupre,M,SBD,MR-HS,59,Raw,2000,,LA,56.90,107.5,-112.5,-115,107.5,62.5,67.5,72.5,72.5,142.5,155,175,175.0,355
5,Trevor Bordelon,M,SBD,MR-HS,59,Raw,2001,,LA,58.00,117.5,122.5,127.5,127.5,72.5,77.5,-80,77.5,135,142.5,150,150.0,355
6,Raj Patel,M,SBD,MR-HS,59,Raw,2001,Abbeville High School,LA,57.10,80,90,-97.5,90.0,55,60,-62.5,60.0,117.5,132.5,-137.5,132.5,282.5
7,Reed Rougeau,M,SBD,MR-HS,59,Raw,2002,,LA,57.70,72.5,-77.5,-85,72.5,57.5,62.5,65,65.0,92.5,100,-107.5,100.0,237.5
DQ,Aaron Tate,M,SBD,MR-HS,59,Raw,1986,,LA,55.90,-70,-70,-70,,-57.5,-57.5,57.5,57.5,85,-92.5,92.5,92.5,
1,Nelson Comeaux,M,SBD,MR-HS,66,Raw,1998,Abbeville High School,LA,62.40,117.5,125,-132.5,125.0,70,-80,-80,70.0,132.5,-152.5,-152.5,132.5,327.5
2,Grant Callahan,M,SBD,MR-HS,66,Raw,2002,,LA,62.80,105,112.5,120,120.0,65,67.5,-72.5,67.5,112.5,135,-137.5,135.0,322.5
1,Pascal Porche,M,SBD,MR-HS,74,Raw,2001,,LA,74.00,152.5,165,-177.5,165.0,92.5,102.5,-110,102.5,205,225,-245,225.0,492.5
2,Dakota Tollefson,M,SBD,MR-HS,74,Raw,1999,,LA,72.20,142.5,-147.5,-147.5,142.5,102.5,107.5,112.5,112.5,185,200,210,210.0,465
3,Christian Alvarez,M,SBD,MR-HS,74,Raw,2002,Abbeville High School,LA,72.00,147.5,162.5,-170,162.5,87.5,100,107.5,107.5,177.5,192.5,-205,192.5,462.5
4,Tai Chase,M,SBD,MR-HS,74,Raw,1999,,LA,71.80,130,150,-167.5,150.0,85,90,97.5,97.5,185,-200,200,200.0,447.5
5,Chance Porter,M,SBD,MR-HS,74,Raw,1999,Abbeville High School,LA,67.40,132.5,145,-150,145.0,87.5,97.5,102.5,102.5,150,170,182.5,182.5,430
6,Tyrone Charlot,M,SBD,MR-HS,74,Raw,2002,,LA,68.60,130,140,150,150.0,100,107.5,112.5,112.5,155,167.5,-182.5,167.5,430
7,Braeden Hebert,M,SBD,MR-HS,74,Raw,2001,,LA,71.50,112.5,117.5,-135,117.5,70,75,-77.5,75.0,130,147.5,150,150.0,342.5
DQ,Layne Carriere,M,SBD,MR-HS,74,Raw,1998,,LA,72.10,-70,-70,-70,,52.5,-55,-55,52.5,82.5,-87.5,-87.5,82.5,
1,Dante Citizen,M,SBD,MR-HS,83,Raw,1999,Abbeville High School,LA,74.50,185,205,-222.5,205.0,125,137.5,-142.5,137.5,227.5,250,265,265.0,607.5
2,Alex Brodhead,M,SBD,MR-HS,83,Raw,1999,,LA,81.90,150,182.5,-200,182.5,77.5,92.5,95,95.0,147.5,177.5,187.5,187.5,465
3,Chaynery Johnson,M,SBD,MR-HS,83,Raw,2001,,LA,74.90,145,160,-172.5,160.0,67.5,80,-85,80.0,167.5,177.5,192.5,192.5,432.5
4,Dontae Dunaway,M,SBD,MR-HS,83,Raw,2000,Abbeville High School,LA,76.40,122.5,137.5,142.5,142.5,77.5,85,90,90.0,152.5,170,185,185.0,417.5
5,Ethan Zaunbrecher,M,SBD,MR-HS,83,Raw,2002,,LA,80.20,127.5,137.5,-145,137.5,87.5,92.5,95,95.0,140,152.5,-185,152.5,385
6,Lonnie Hall,M,SBD,MR-HS,83,Raw,2001,,LA,80.10,127.5,132.5,142.5,142.5,55,70,-72.5,70.0,125,140,160,160.0,372.5
DQ,Harris Vincent,M,SBD,MR-HS,83,Raw,2000,,LA,80.30,-200,-200,-200,,-115,,,,-185,,,,
1,Jerimyah Overton,M,SBD,MR-HS,93,Raw,2000,Abbeville High School,LA,92.10,182.5,197.5,202.5,202.5,110,122.5,127.5,127.5,165,187.5,210,210.0,540
2,Cole Lejeune,M,SBD,MR-HS,93,Raw,1999,,LA,88.80,142.5,157.5,170,170.0,102.5,115,-122.5,115.0,160,177.5,190,190.0,475
3,Addison Gaspard,M,SBD,MR-HS,93,Raw,2001,Abbeville High School,LA,83.50,132.5,142.5,155,155.0,87.5,92.5,95,95.0,182.5,207.5,217.5,217.5,467.5
4,Daniel Otillio,M,SBD,MR-HS,93,Raw,2000,,LA,91.70,-152.5,152.5,165,165.0,95,100,-107.5,100.0,192.5,-205,-212.5,192.5,457.5
5,Brennan Roy,M,SBD,MR-HS,93,Raw,2000,Abbeville High School,LA,83.30,75,87.5,95,95.0,67.5,75,-82.5,75.0,120,137.5,147.5,147.5,317.5
1,Trent Wells,M,SBD,MR-HS,105,Raw,1999,,LA,100.90,-195,195,-212.5,195.0,115,125,135,135.0,195,212.5,227.5,227.5,557.5
2,Hunter Bourque,M,SBD,MR-HS,105,Raw,1999,Abbeville High School,LA,93.50,145,162.5,170,170.0,87.5,-97.5,97.5,97.5,172.5,195,200,200.0,467.5
3,Gabriel Knapp,M,SBD,MR-HS,105,Raw,2002,,LA,98.00,167.5,177.5,190,190.0,100,110,-115,110.0,150,167.5,-190,167.5,467.5
4,Marlon Coco,M,SBD,MR-HS,105,Raw,2002,Abbeville High School,LA,94.80,137.5,150,162.5,162.5,80,90,-100,90.0,165,187.5,-205,187.5,440
5,Matt Thibodeaux,M,SBD,MR-HS,105,Raw,2002,,LA,93.20,100,112.5,127.5,127.5,52.5,60,67.5,67.5,120,-135,155,155.0,350
1,Andrew Nguyen,M,SBD,MR-HS,120,Raw,2000,Abbeville High School,LA,112.70,190,207.5,220,220.0,102.5,112.5,120,120.0,227.5,252.5,-272.5,252.5,592.5
2,Damon Legrande,M,SBD,MR-HS,120,Raw,2002,,LA,110.00,190,205,-215,205.0,105,110,-120,110.0,215,230,235,235.0,550
DQ,Jace Miley,M,SBD,MR-HS,120,Raw,2002,,LA,120.00,135,142.5,150,150.0,-77.5,-77.5,-77.5,,-145,145,150,150.0,
1,Samuel Day,M,SBD,MR-HS,120+,Raw,2000,,LA,145.40,230,-247.5,252.5,252.5,140,150,157.5,157.5,232.5,245,257.5,257.5,667.5
2,Matthew Thibodaux,M,SBD,MR-HS,120+,Raw,2001,,LA,123.30,225,245,-247.5,245.0,115,125,130,130.0,245,255,262.5,262.5,637.5
3,Corbyn Belgard,M,SBD,MR-HS,120+,Raw,2000,,LA,125.70,200,210,220,220.0,120,130,-137.5,130.0,200,215,227.5,227.5,577.5
4,Clayton Malone,M,SBD,MR-HS,120+,Raw,2003,Cavalry Baptist Academy,LA,130.50,130,140,142.5,142.5,75,85,-87.5,85.0,130,142.5,145,145.0,372.5
5,Adam Gilmore,M,SBD,MR-HS,120+,Raw,1997,,LA,120.60,102.5,117.5,135,135.0,-85,90,-95,90.0,112.5,127.5,135,135.0,360
