Division,WeightClassKg,Place,Name,Team,BodyweightKg,Best3SquatKg,Best3BenchKg,Best3DeadliftKg,TotalKg,Equipment,Event,Sex
Boys,52,1,Cody Henson,Abernathy,50.44,124.74,61.23,136.08,322.05,Single-ply,SBD,M
Boys,56,1,Carlos Rodriguez,Olton,54.98,147.42,79.38,149.69,376.48,Single-ply,SBD,M
Boys,56,2,Juan Yebra,Olton,55.7,113.4,79.38,145.15,337.93,Single-ply,SBD,M
Boys,56,3,Alfredo Lozano,Brownfield,54.52,117.93,65.77,151.95,335.66,Single-ply,SBD,M
Boys,56,4,Jose Perez #6,Sundown,54.07,108.86,58.97,129.27,297.1,Single-ply,SBD,M
Boys,56,5,Truman Richerson,Abernathy,52.34,102.06,58.97,97.52,258.55,Single-ply,SBD,M
Boys,56,DQ,Zach Gilbert,Lubbock Roosevelt,54.52,,,,,Single-ply,SBD,M
Boys,60,1,Brandon Ureste,Abernathy,58.88,115.67,72.57,115.67,303.91,Single-ply,SBD,M
Boys,60,2,Eli Samarron,Sundown,59.87,102.06,61.23,124.74,288.03,Single-ply,SBD,M
Boys,60,3,Jakeum DeLaCruz,Abernathy,56.79,104.33,58.97,102.06,265.35,Single-ply,SBD,M
Boys,67.5,1,Johnny Hernandez,Sundown,64.86,204.12,90.72,181.44,476.27,Single-ply,SBD,M
Boys,67.5,2,JD Rojas,Lubbock Roosevelt,61.6,163.29,111.13,195.04,469.47,Single-ply,SBD,M
Boys,67.5,3,Isaac Hernandez,Sundown,64.86,156.49,90.72,172.37,419.57,Single-ply,SBD,M
Boys,67.5,4,Zach Ponciano,Abernathy,65.86,165.56,90.72,161.03,417.3,Single-ply,SBD,M
Boys,67.5,5,Rock Thoms,Sundown,66.5,142.88,83.91,181.44,408.23,Single-ply,SBD,M
Boys,67.5,6,Jacob Garcia,Lubbock Roosevelt,64.14,156.49,90.72,154.22,401.43,Single-ply,SBD,M
Boys,67.5,7,Stephen Calcote,Lubbock Roosevelt,64.23,142.88,72.57,145.15,360.61,Single-ply,SBD,M
Boys,67.5,8,Peyton Lowdermilk,Tahoka,63.14,136.08,70.31,149.69,356.07,Single-ply,SBD,M
Boys,67.5,9,George Flores,Abernathy,66.59,131.54,83.91,140.61,356.07,Single-ply,SBD,M
Boys,67.5,10,J-Lee Moreno,Abernathy,61.87,136.08,72.57,136.08,344.73,Single-ply,SBD,M
Boys,67.5,11,Daniel Aguirre,Abernathy,63.68,127.01,81.65,124.74,333.39,Single-ply,SBD,M
Boys,67.5,DQ,Richard Vasquez,Lubbock Roosevelt,63.59,,,,,Single-ply,SBD,M
Boys,67.5,DQ,Jesus Garza,Brownfield,65.41,136.08,,,,Single-ply,SBD,M
Boys,75,1,Alexander Herevia,Tahoka,68.13,158.76,86.18,165.56,410.5,Single-ply,SBD,M
Boys,75,2,Julian Cotto,Tahoka,68.4,140.61,88.45,174.63,403.7,Single-ply,SBD,M
Boys,75,3,Brendyn Rodriguez,Brownfield,74.66,149.69,92.99,156.49,399.16,Single-ply,SBD,M
Boys,75,4,Matthew Diaz,Tahoka,69.94,154.22,70.31,154.22,378.75,Single-ply,SBD,M
Boys,75,5,Chris Vargas,Tahoka,74.21,124.74,65.77,142.88,333.39,Single-ply,SBD,M
Boys,75,6,Austin Calloway,Abernathy,73.12,120.2,72.57,136.08,328.85,Single-ply,SBD,M
Boys,75,7,Ryan Scoggins,Tahoka,69.94,120.2,58.97,142.88,322.05,Single-ply,SBD,M
Boys,75,8,Michael Trevino,Abernathy,69.76,117.93,68.04,129.27,315.25,Single-ply,SBD,M
Boys,75,9,Miguel Granados,Tahoka,72.57,113.4,56.7,122.47,292.57,Single-ply,SBD,M
Boys,75,10,Mason Walker,Tahoka,72.03,79.38,56.7,102.06,238.14,Single-ply,SBD,M
Boys,75,DQ,Dante Flores,Abernathy,70.03,124.74,,,,Single-ply,SBD,M
Boys,82.5,1,Link Wilkes,Sundown,81.47,215.46,129.27,240.4,585.13,Single-ply,SBD,M
Boys,82.5,2,Brayden Castillon,Tahoka,79.47,185.97,104.33,192.78,483.08,Single-ply,SBD,M
Boys,82.5,3,Lorenzo Garza,Brownfield,75.07,142.88,90.72,156.49,390.09,Single-ply,SBD,M
Boys,82.5,4,Sergio Guerrero,Olton,81.47,136.08,68.04,136.08,340.19,Single-ply,SBD,M
Boys,82.5,5,Dawson Glover,Tahoka,78.02,111.13,61.23,133.81,306.17,Single-ply,SBD,M
Boys,82.5,6,Hayden Rexrode,Abernathy,75.66,43.09,38.56,81.65,163.29,Single-ply,SBD,M
Boys,82.5,DQ,Teagan Cooksey,Lubbock Roosevelt,76.84,154.22,111.13,,,Single-ply,SBD,M
Boys,82.5,DQ,Bryce Spencer,Sundown,81.74,165.56,,,,Single-ply,SBD,M
Boys,90,1,Ladd Wilkes,Sundown,86,226.8,136.08,226.8,589.67,Single-ply,SBD,M
Boys,90,2,Jeremy L Hernandez,Sundown,88.36,188.24,102.06,208.65,498.95,Single-ply,SBD,M
Boys,90,3,Brody Black,Sundown,84.64,174.63,92.99,154.22,421.84,Single-ply,SBD,M
Boys,90,4,Cameron McQueen,Brownfield,88.81,149.69,102.06,165.56,417.3,Single-ply,SBD,M
Boys,90,5,Alfonso Heredia,Olton,83.46,97.52,68.04,142.88,308.44,Single-ply,SBD,M
Boys,90,DQ,Jayton Grisham,Abernathy,82.83,192.78,108.86,,,Single-ply,SBD,M
Boys,90,DQ,Jacob McMinn,Abernathy,84.19,129.27,70.31,,,Single-ply,SBD,M
Boys,100,1,Nathan Sullivan,Abernathy,93.17,249.48,136.08,213.19,598.74,Single-ply,SBD,M
Boys,100,2,Michael Muse,Olton,93.53,199.58,104.33,176.9,480.81,Single-ply,SBD,M
Boys,100,3,JR Paiz,Sundown,97.07,204.12,113.4,163.29,480.81,Single-ply,SBD,M
Boys,100,4,Gabriel Chavez,Olton,99.52,204.12,95.25,172.37,471.74,Single-ply,SBD,M
Boys,100,5,Esaiah Rodriguez,Lubbock Roosevelt,91.26,167.83,106.59,158.76,433.18,Single-ply,SBD,M
Boys,100,6,JC Pedroza,Olton,98.79,158.76,90.72,158.76,408.23,Single-ply,SBD,M
Boys,100,7,Nicodemus Ayala,Tahoka,93.8,154.22,88.45,163.29,405.97,Single-ply,SBD,M
Boys,100,8,Chris Correa,Brownfield,93.26,158.76,88.45,151.95,399.16,Single-ply,SBD,M
Boys,100,9,Blake Harmon,Tahoka,95.53,142.88,88.45,158.76,390.09,Single-ply,SBD,M
Boys,100,10,Stephen Cortez,Abernathy,90.08,136.08,81.65,142.88,360.61,Single-ply,SBD,M
Boys,100,11,Rafael Vicencio,Brownfield,91.63,136.08,61.23,136.08,333.39,Single-ply,SBD,M
Boys,100,DQ,Isaia Duenes,Lubbock Roosevelt,98.43,215.46,136.08,,,Single-ply,SBD,M
Boys,110,1,Diego Garcia,Brownfield,105.6,213.19,136.08,213.19,562.45,Single-ply,SBD,M
Boys,110,2,Ian Ponce,Abernathy,108.32,226.8,124.74,188.24,539.77,Single-ply,SBD,M
Boys,110,3,Ruben Quinonez,Tahoka,102.42,204.12,138.35,185.97,528.44,Single-ply,SBD,M
Boys,110,4,Andy Casias,Abernathy,105.6,181.44,113.4,170.1,464.93,Single-ply,SBD,M
Boys,125,1,Jonah Lopez,Abernathy,111.22,204.12,117.93,185.97,508.02,Single-ply,SBD,M
Boys,125,2,Aj Castro,Sundown,113.31,195.04,122.47,167.83,485.34,Single-ply,SBD,M
Boys,125+,1,Francisco Saenz,Olton,133.08,235.87,124.74,231.33,591.94,Single-ply,SBD,M
Boys,125+,2,Arty Lopez,Abernathy,135.17,161.03,97.52,161.03,419.57,Single-ply,SBD,M
Boys,125+,3,Zarrius Bates,Lubbock Roosevelt,143.43,154.22,92.99,165.56,412.77,Single-ply,SBD,M
Boys,125+,DQ,Kevin Shoemaker,Lubbock Roosevelt,145.97,188.24,120.2,,,Single-ply,SBD,M
Boys,125+,DQ,Cameron Hastings,Sundown,139.71,204.12,,,,Single-ply,SBD,M
Boys,125+,DQ,Jefferey Davis,Brownfield,141.43,149.69,92.99,,,Single-ply,SBD,M
