Division,WeightClassKg,Place,Name,Team,BodyweightKg,Best3SquatKg,Best3BenchKg,Best3DeadliftKg,TotalKg,Equipment,Event,Sex
Boys,52,1,Ransom McDonald,Archer City,50.08,74.84,47.63,77.11,199.58,Single-ply,SBD,M
Boys,56,1,Isiah Rodriguez,Ralls,55.34,136.08,70.31,145.15,351.53,Single-ply,SBD,M
Boys,60,1,Christian Teichelman,Childress,59.42,190.51,124.74,199.58,514.83,Single-ply,SBD,M
Boys,60,2,Ryan Garcia,Ralls,59.87,174.63,81.65,181.44,437.72,Single-ply,SBD,M
Boys,60,3,Brian Jackson,Seymour,59.87,147.42,92.99,147.42,387.82,Single-ply,SBD,M
Boys,60,4,Matthew Jimenez,Haskell,58.88,117.93,77.11,147.42,342.46,Single-ply,SBD,M
Boys,60,5,Justin Busby,Childress,57.42,108.86,63.5,113.4,285.76,Single-ply,SBD,M
Boys,67.5,1,Robert Zavala,Ralls,67.13,215.46,131.54,215.46,562.45,Single-ply,SBD,M
Boys,67.5,2,Christian Velasquez,Ralls,62.96,138.35,74.84,170.1,383.29,Single-ply,SBD,M
Boys,67.5,3,Ariel DeLaCerda,Ralls,64.46,138.35,72.57,147.42,358.34,Single-ply,SBD,M
Boys,67.5,4,Benjamin Njenga,Ralls,67.13,136.08,56.7,156.49,349.27,Single-ply,SBD,M
Boys,67.5,5,Korby Kimbro,Electra,61.69,133.81,77.11,136.08,347,Single-ply,SBD,M
Boys,67.5,6,Marc Williams,Haskell,62.23,120.2,68.04,156.49,344.73,Single-ply,SBD,M
Boys,67.5,7,John Machtolff,Archer City,60.42,124.74,88.45,124.74,337.93,Single-ply,SBD,M
Boys,67.5,8,Ethan Cato,Quanah,60.96,113.4,52.16,113.4,278.96,Single-ply,SBD,M
Boys,67.5,DQ,Kaleb Ray,Baird,,,,,,Single-ply,SBD,M
Boys,75,1,Cody Castor,Childress,72.48,197.31,154.22,217.72,569.26,Single-ply,SBD,M
Boys,75,2,Peyton Smith,Haskell,73.39,167.83,102.06,181.44,451.32,Single-ply,SBD,M
Boys,75,3,Jerry Flores,Ralls,70.31,158.76,106.59,181.44,446.79,Single-ply,SBD,M
Boys,75,4,Steven Salazar,Ralls,68.04,156.49,95.25,174.63,426.38,Single-ply,SBD,M
Boys,75,5,Braydon Garcia,Quanah,72.21,149.69,88.45,185.97,424.11,Single-ply,SBD,M
Boys,75,6,Luke Leonard,Haskell,74.84,149.69,92.99,156.49,399.16,Single-ply,SBD,M
Boys,75,7,Kayden Laminack,Ralls,73.48,142.88,92.99,154.22,390.09,Single-ply,SBD,M
Boys,75,8,Tyler Ray,Baird,71.21,140.61,86.18,136.08,362.87,Single-ply,SBD,M
Boys,75,9,Kason Matthews,Quanah,70.13,124.74,70.31,145.15,340.19,Single-ply,SBD,M
Boys,75,10,Joseph Quintero,Seymour,67.68,108.86,99.79,127.01,335.66,Single-ply,SBD,M
Boys,75,11,Gavin Carper,Baird,71.67,136.08,77.11,113.4,326.59,Single-ply,SBD,M
Boys,75,12,Gabe Easter,Electra,72.48,120.2,49.9,120.2,290.3,Single-ply,SBD,M
Boys,75,DQ,Thomas Arnold,Seymour,,,,,,Single-ply,SBD,M
Boys,75,DQ,Diego Deleon,Ralls,70.08,,,,,Single-ply,SBD,M
Boys,82.5,1,Kaleb Salazar,Ralls,82.1,215.46,113.4,226.8,555.65,Single-ply,SBD,M
Boys,82.5,2,Travis Swenson,Henrietta,82.1,181.44,140.61,208.65,530.7,Single-ply,SBD,M
Boys,82.5,3,Sergio Salinas,Ralls,81.19,199.58,102.06,204.12,505.76,Single-ply,SBD,M
Boys,82.5,4,Justin Browning,Archer City,80.1,149.69,108.86,170.1,428.64,Single-ply,SBD,M
Boys,82.5,5,Coby Rendon,Ralls,79.7,151.95,79.38,170.1,401.43,Single-ply,SBD,M
Boys,82.5,6,Brian DeLaRosa,Archer City,75.3,120.2,86.18,142.88,349.27,Single-ply,SBD,M
Boys,82.5,DQ,Grant Vinson,Baird,,,,,,Single-ply,SBD,M
Boys,90,1,Luis Marquez,Olney,88.63,185.97,102.06,176.9,464.93,Single-ply,SBD,M
Boys,90,2,Caleb Wright,Haskell,84.1,181.44,88.45,185.97,455.86,Single-ply,SBD,M
Boys,90,3,Jesse Bustamante,Electra,83.82,,104.33,172.37,276.69,Single-ply,BD,M
Boys,100,1,Elias Martinez,Ralls,90.08,190.51,99.79,208.65,498.95,Single-ply,SBD,M
Boys,110,1,Chase Stafford,Archer City,106.32,199.58,117.93,213.19,530.7,Single-ply,SBD,M
Boys,110,2,Hector Hernandez,Olney,104.05,213.19,81.65,219.99,514.83,Single-ply,SBD,M
Boys,110,3,Austin Adkins,Baird,109.5,185.97,127.01,190.51,503.49,Single-ply,SBD,M
Boys,110,4,Jacob Bartlett,Ralls,105.69,181.44,92.99,190.51,464.93,Single-ply,SBD,M
Boys,110,5,Tyler Tucker,Electra,102.33,156.49,95.25,174.63,426.38,Single-ply,SBD,M
Boys,125,1,Aaron Longoria,Quanah,117.39,226.8,133.81,204.12,564.72,Single-ply,SBD,M
Boys,125,2,Tyler Carper,Baird,118.12,204.12,127.01,195.04,526.17,Single-ply,SBD,M
Boys,125,3,Zane Myracle,Archer City,113.4,176.9,113.4,167.83,458.13,Single-ply,SBD,M
Boys,125,4,Stephen Crain,Haskell,116.66,124.74,99.79,136.08,360.61,Single-ply,SBD,M
Boys,125,DQ,Jonthan Goodner,Seymour,,,,,,Single-ply,SBD,M
Boys,125+,1,Tate Sizemore,Henrietta,132.54,258.55,158.76,217.72,635.03,Single-ply,SBD,M
Boys,125+,2,Josh Ward,Baird,168.92,204.12,108.86,185.97,498.95,Single-ply,SBD,M
Boys,125+,3,Hobie Williamson,Electra,128.64,124.74,92.99,133.81,351.53,Single-ply,SBD,M
