Division,WeightClassKg,Place,Name,Team,BodyweightKg,Best3SquatKg,Best3BenchKg,Best3DeadliftKg,TotalKg,Equipment,Event,Sex
Boys,52,1,Talon Romero,Amarillo Highland Park,50.94,149.69,97.52,151.95,399.16,Single-ply,SBD,M
Boys,52,2,Joseph Jenkins,Perryton,50.8,106.59,65.77,117.93,290.3,Single-ply,SBD,M
Boys,52,3,Dalton Benson,Clarendon,51.44,104.33,56.7,113.4,274.42,Single-ply,SBD,M
Boys,52,4,Collier Bell,White Deer,51.53,70.31,31.75,92.99,195.04,Single-ply,SBD,M
Boys,56,1,Bryan Tran,Amarillo Highland Park,55.25,142.88,81.65,170.1,394.63,Single-ply,SBD,M
Boys,56,2,Kordell Lawrence,Dalhart,55.61,145.15,79.38,151.95,376.48,Single-ply,SBD,M
Boys,56,3,Dillon Cotton,White Deer,53.07,136.08,77.11,151.95,365.14,Single-ply,SBD,M
Boys,56,4,Hunter Weaver,Canyon Randall,54.88,133.81,70.31,142.88,347,Single-ply,SBD,M
Boys,56,5,Billy Lee,Amarillo Highland Park,55.25,131.54,79.38,122.47,333.39,Single-ply,SBD,M
Boys,56,6,Matthew Cano,Perryton,55.79,104.33,72.57,129.27,306.17,Single-ply,SBD,M
Boys,56,7,Evan Judd,Dumas,54.79,106.59,63.5,129.27,299.37,Single-ply,SBD,M
Boys,56,8,Trevor Bennett,Perryton,55.79,113.4,56.7,120.2,290.3,Single-ply,SBD,M
Boys,56,DQ,Juan Moreno,Amarillo Highland Park,54.61,117.93,,,,Single-ply,SBD,M
Boys,60,1,Christian Maldonado,Canyon Randall,58.51,170.1,108.86,167.83,446.79,Single-ply,SBD,M
Boys,60,2,Ray Jaramillo,Clarendon,59.87,161.03,99.79,167.83,428.64,Single-ply,SBD,M
Boys,60,3,Jonathan Chavira,Dumas,59.51,136.08,83.91,156.49,376.48,Single-ply,SBD,M
Boys,60,4,Kevin Nguyen #8,Amarillo Highland Park,57.52,142.88,68.04,149.69,360.61,Single-ply,SBD,M
Boys,60,5,Ceasar Luther,Perryton,59.87,122.47,83.91,136.08,342.46,Single-ply,SBD,M
Boys,60,6,Caio Zacharias,Dalhart,59.33,124.74,77.11,136.08,337.93,Single-ply,SBD,M
Boys,60,7,Brennon Eckert,Amarillo River Road,57.61,129.27,61.23,117.93,308.44,Single-ply,SBD,M
Boys,60,8,James Grandmaisson,Amarillo River Road,57.61,106.59,68.04,124.74,299.37,Single-ply,SBD,M
Boys,67.5,1,Terrin Campbell,Amarillo Highland Park,65.86,188.24,106.59,190.51,485.34,Single-ply,SBD,M
Boys,67.5,2,Deonte Woodward,Amarillo River Road,67.13,167.83,88.45,170.1,426.38,Single-ply,SBD,M
Boys,67.5,3,Kaiden Summerville,Perryton,65.77,154.22,102.06,158.76,415.04,Single-ply,SBD,M
Boys,67.5,4,Chris Casanova,Dumas,63.05,138.35,99.79,158.76,396.89,Single-ply,SBD,M
Boys,67.5,5,Erving Lerma,Dumas,66.13,147.42,92.99,154.22,394.63,Single-ply,SBD,M
Boys,67.5,6,Jaden Shaver,Panhandle,65.86,145.15,83.91,142.88,371.95,Single-ply,SBD,M
Boys,67.5,7,Zach Walser,Canyon Randall,61.23,138.35,79.38,138.35,356.07,Single-ply,SBD,M
Boys,67.5,8,Zach Moore,Panhandle,64.86,127.01,74.84,136.08,337.93,Single-ply,SBD,M
Boys,67.5,9,Joe Smith,Panhandle,61.23,104.33,58.97,127.01,290.3,Single-ply,SBD,M
Boys,75,1,Garron Weber,Borger,73.39,188.24,124.74,215.46,528.44,Single-ply,SBD,M
Boys,75,2,Corbin McGill,Borger,73.39,195.04,115.67,201.85,512.56,Single-ply,SBD,M
Boys,75,3,Noah Martinez,Dalhart,74.62,199.58,117.93,188.24,505.76,Single-ply,SBD,M
Boys,75,4,Robert Quilimaco,White Deer,73.94,185.97,113.4,192.78,492.15,Single-ply,SBD,M
Boys,75,5,Layton Lamberson,Panhandle,73.48,183.7,108.86,192.78,485.34,Single-ply,SBD,M
Boys,75,6,CJ McDaniel,Borger,69.04,183.7,90.72,190.51,464.93,Single-ply,SBD,M
Boys,75,7,Kristian Gonzales,Dumas,70.22,165.56,111.13,172.37,449.06,Single-ply,SBD,M
Boys,75,8,Ely Hernandez,Dumas,74.84,147.42,95.25,197.31,439.98,Single-ply,SBD,M
Boys,75,9,Brad Scott,Canyon Randall,72.12,158.76,102.06,158.76,419.57,Single-ply,SBD,M
Boys,75,10,Crispin Estrada,Dumas,72.76,140.61,90.72,181.44,412.77,Single-ply,SBD,M
Boys,75,11,Ronit Patel,Dalhart,71.21,142.88,74.84,181.44,399.16,Single-ply,SBD,M
Boys,75,12,Cedrick Pena,Dumas,71.85,149.69,88.45,151.95,390.09,Single-ply,SBD,M
Boys,75,13,Carson Gross,Amarillo River Road,69.22,151.95,81.65,151.95,385.55,Single-ply,SBD,M
Boys,75,14,Kodiak Martinez,Dalhart,73.98,149.69,61.23,174.63,385.55,Single-ply,SBD,M
Boys,75,15,Eduardo Gutierrez,Dumas,67.49,142.88,88.45,147.42,378.75,Single-ply,SBD,M
Boys,75,16,Tony Inthirath,Dumas,68.49,138.35,79.38,158.76,376.48,Single-ply,SBD,M
Boys,75,17,Zane Hackett,Panhandle,74.75,122.47,79.38,133.81,335.66,Single-ply,SBD,M
Boys,75,18,Stoney Griggs,Dalhart,68.22,127.01,68.04,136.08,331.12,Single-ply,SBD,M
Boys,82.5,1,Jaidan Puga,Dalhart,79.92,226.8,154.22,210.92,591.94,Single-ply,SBD,M
Boys,82.5,2,Blaine McGregor,Amarillo Highland Park,81.19,210.92,124.74,210.92,546.58,Single-ply,SBD,M
Boys,82.5,3,Steven Espino,Dumas,80.65,210.92,108.86,201.85,521.63,Single-ply,SBD,M
Boys,82.5,4,Henry Torres,Perryton,78.02,201.85,113.4,185.97,501.22,Single-ply,SBD,M
Boys,82.5,5,DJ Petties,Dalhart,82.01,174.63,88.45,215.46,478.54,Single-ply,SBD,M
Boys,82.5,6,Jesus Gamon,Dumas,82.1,156.49,92.99,210.92,460.4,Single-ply,SBD,M
Boys,82.5,7,Keishaun Harper,Dumas,79.29,151.95,97.52,204.12,453.59,Single-ply,SBD,M
Boys,82.5,8,Albert Rodriguez,Dalhart,79.47,124.74,61.23,172.37,358.34,Single-ply,SBD,M
Boys,82.5,DQ,Cutter Paris,Canyon Randall,81.65,,,,,Single-ply,SBD,M
Boys,82.5,DQ,Dat Luu,Amarillo Highland Park,81.28,197.31,102.06,,,Single-ply,SBD,M
Boys,90,1,Courtney Gravely,Amarillo Highland Park,89.54,231.33,136.08,226.8,594.21,Single-ply,SBD,M
Boys,90,2,Wesley Ward,Borger,87,183.7,108.86,215.46,508.02,Single-ply,SBD,M
Boys,90,3,Waylon Hansen,Amarillo Highland Park,89.45,181.44,115.67,190.51,487.61,Single-ply,SBD,M
Boys,90,4,Ethan Hays,Panhandle,85.73,199.58,113.4,172.37,485.34,Single-ply,SBD,M
Boys,90,5,Austin Adams,Dumas,89.18,165.56,111.13,204.12,480.81,Single-ply,SBD,M
Boys,90,6,Josh Mares,Dumas,88.54,165.56,108.86,204.12,478.54,Single-ply,SBD,M
Boys,90,7,Angel Duran,Dumas,86.82,138.35,99.79,204.12,442.25,Single-ply,SBD,M
Boys,90,8,Garrett Mcllroy,Panhandle,86.64,167.83,88.45,167.83,424.11,Single-ply,SBD,M
Boys,90,9,Jay C' Brown,Amarillo River Road,89.27,158.76,102.06,158.76,419.57,Single-ply,SBD,M
Boys,90,10,Augustine Moreno,Amarillo Highland Park,88.81,154.22,92.99,156.49,403.7,Single-ply,SBD,M
Boys,90,11,Collin Barthlow,Panhandle,83.91,90.72,49.9,90.72,231.33,Single-ply,SBD,M
Boys,100,1,Gage Alexander,Panhandle,99.79,195.04,124.74,215.46,535.24,Single-ply,SBD,M
Boys,100,2,Derek Ditto,Dumas,92.53,174.63,149.69,204.12,528.44,Single-ply,SBD,M
Boys,100,3,Austin Archuleta,Panhandle,92.99,222.26,124.74,176.9,523.9,Single-ply,SBD,M
Boys,100,4,Caden Lafever,Canyon Randall,90.72,190.51,124.74,206.38,521.63,Single-ply,SBD,M
Boys,100,5,Victor Del Fierro,Canyon Randall,99.34,181.44,129.27,181.44,492.15,Single-ply,SBD,M
Boys,100,6,Antonio Covarrubias,Perryton,96.16,174.63,102.06,190.51,467.2,Single-ply,SBD,M
Boys,100,7,Hayden Putnam,Amarillo River Road,96.34,181.44,99.79,181.44,462.66,Single-ply,SBD,M
Boys,100,8,Uriel Hernandez,Perryton,97.07,188.24,92.99,172.37,453.59,Single-ply,SBD,M
Boys,100,9,Israel Uribe,Perryton,97.52,181.44,74.84,197.31,453.59,Single-ply,SBD,M
Boys,100,10,Ryan Ortiz,Dalhart,92.08,185.97,88.45,176.9,451.32,Single-ply,SBD,M
Boys,100,11,Dylan Bevel,Canyon Randall,92.08,183.7,106.59,154.22,444.52,Single-ply,SBD,M
Boys,100,12,Justin Gandy,Panhandle,98.16,149.69,83.91,172.37,405.97,Single-ply,SBD,M
Boys,100,13,Ezquiel Porras,Borger,97.34,222.26,115.67,,337.93,Single-ply,SB,M
Boys,100,DQ,Andrew Vasquez,Perryton,97.98,,,,,Single-ply,SBD,M
Boys,110,1,Tyler Brewer,Dalhart,102.65,288.03,147.42,265.35,700.8,Single-ply,SBD,M
Boys,110,2,Dakota McWhorter,Panhandle,104.78,226.8,138.35,210.92,576.06,Single-ply,SBD,M
Boys,110,3,Jovan Acosta,Dumas,108.32,210.92,111.13,231.33,553.38,Single-ply,SBD,M
Boys,110,4,Alonso Cardenas,Dumas,109.77,185.97,106.59,213.19,505.76,Single-ply,SBD,M
Boys,110,5,Brady Cooke,Panhandle,109.32,190.51,95.25,170.1,455.86,Single-ply,SBD,M
Boys,110,6,Mario Becerril,Perryton,100.24,174.63,102.06,170.1,446.79,Single-ply,SBD,M
Boys,110,7,Cole Bacon,Panhandle,101.24,136.08,74.84,142.88,353.8,Single-ply,SBD,M
Boys,125,1,Seth Greer,Clarendon,120.11,210.92,156.49,226.8,594.21,Single-ply,SBD,M
Boys,125,2,Marcos Bribiesca,Canyon Randall,124.65,238.14,129.27,206.38,573.79,Single-ply,SBD,M
Boys,125,3,Daniel Carrillo,Amarillo Highland Park,118.21,233.6,115.67,222.26,571.53,Single-ply,SBD,M
Boys,125,4,Damian Provencio,Borger,119.11,226.8,129.27,215.46,571.53,Single-ply,SBD,M
Boys,125,5,Britton Milbum,Amarillo River Road,116.03,235.87,113.4,217.72,566.99,Single-ply,SBD,M
Boys,125,6,Andrew Smith #7,Panhandle,117.39,208.65,136.08,206.38,551.11,Single-ply,SBD,M
Boys,125+,1,Colby Roach,Panhandle,144.24,272.16,167.83,217.72,657.71,Single-ply,SBD,M
Boys,125+,2,Casey Stewart,Dalhart,125.6,240.4,147.42,190.51,578.33,Single-ply,SBD,M
Boys,125+,3,Manuel Carmona,Dumas,133.04,201.85,108.86,206.38,517.1,Single-ply,SBD,M
