Division,WeightClassKg,Place,Name,Team,BodyweightKg,Best3SquatKg,Best3BenchKg,Best3DeadliftKg,TotalKg,Equipment,Event,Sex
Boys,52,1,Keegan Mantanona,Salado,50.8,92.99,45.36,92.99,231.33,Single-ply,SBD,M
Boys,56,1,Horacio Huerta,Salado,55.79,127.01,68.04,136.08,331.12,Single-ply,SBD,M
Boys,67.5,1,Charles Guerra,Jarrell,63.5,136.08,102.06,165.56,403.7,Single-ply,SBD,M
Boys,67.5,2,Martin Torres,Jarrell,63.05,127.01,81.65,147.42,356.07,Single-ply,SBD,M
Boys,67.5,3,Daniel Frisby,Salado,67.13,129.27,74.84,151.95,356.07,Single-ply,SBD,M
Boys,67.5,4,Cooper Scott,Salado,65.77,129.27,74.84,124.74,328.85,Single-ply,SBD,M
Boys,75,1,Alex Hernandez,Jarrell,68.95,190.51,120.2,188.24,498.95,Single-ply,SBD,M
Boys,75,2,Hunter Turk,Salado,74.84,185.97,113.4,170.1,469.47,Single-ply,SBD,M
Boys,75,3,TJ Eldridge,Pflugerville Hendrickson,69.85,142.88,104.33,183.7,430.91,Single-ply,SBD,M
Boys,75,4,Jesus Valle,Jarrell,73.03,106.59,83.91,131.54,322.05,Single-ply,SBD,M
Boys,75,5,Baldermore Rodriguez,Salado,71.21,92.99,83.91,142.88,319.78,Single-ply,SBD,M
Boys,82.5,1,Roman Anderson,Pflugerville Hendrickson,79.83,197.31,129.27,197.31,523.9,Single-ply,SBD,M
Boys,82.5,2,Hunter Seymore,Salado,78.02,136.08,90.72,165.56,392.36,Single-ply,SBD,M
Boys,90,1,Connor Cook,Salado,86.18,242.67,147.42,249.48,639.57,Single-ply,SBD,M
Boys,90,2,Martin Aguado,Jarrell,83.01,151.95,127.01,170.1,449.06,Single-ply,SBD,M
Boys,90,3,Walker Hawkins,Salado,89.36,151.95,90.72,156.49,399.16,Single-ply,SBD,M
Boys,100,1,Jace Chambers,Pflugerville Hendrickson,99.34,215.46,142.88,254.01,612.35,Single-ply,SBD,M
Boys,100,2,Blake Madden,Salado,99.34,188.24,122.47,174.63,485.34,Single-ply,SBD,M
Boys,100,3,Kofi Stoglin,Salado,95.71,167.83,111.13,183.7,462.66,Single-ply,SBD,M
Boys,100,4,Cristobal Arredendo,Jarrell,94.8,151.95,92.99,161.03,405.97,Single-ply,SBD,M
Boys,100,5,Avery Womack,Salado,98.88,136.08,102.06,147.42,385.55,Single-ply,SBD,M
Boys,100,6,Chance Hill,Salado,98.43,133.81,95.25,142.88,371.95,Single-ply,SBD,M
Boys,100,7,Dillan Hempel,Salado,93.44,138.35,102.06,124.74,365.14,Single-ply,SBD,M
Boys,100,8,Beau Hill,Salado,94.8,122.47,81.65,142.88,347,Single-ply,SBD,M
Boys,100,DQ,Joe Sampson,Salado,96.62,204.12,140.61,,,Single-ply,SBD,M
Boys,110,1,Tommie Barker,Salado,108.86,210.92,145.15,208.65,564.72,Single-ply,SBD,M
Boys,110,2,Ryan Poe,Salado,108.86,199.58,133.81,197.31,530.7,Single-ply,SBD,M
Boys,110,3,Gabe Valdespino,Pflugerville Hendrickson,106.59,197.31,129.27,156.49,483.08,Single-ply,SBD,M
Boys,110,4,Nicholas Sibbitt,Salado,102.97,142.88,99.79,136.08,378.75,Single-ply,SBD,M
Boys,125,1,Thomas Clawson,Jarrell,117.03,206.38,147.42,226.8,580.6,Single-ply,SBD,M
Boys,125,DQ,Walker Riley,Pflugerville Hendrickson,120.2,201.85,,204.12,,Single-ply,SBD,M
Boys,125+,1,Petr Svoboda,Pflugerville Hendrickson,144.7,240.4,142.88,231.33,614.62,Single-ply,SBD,M
Boys,125+,2,Gavyn Keyser,Salado,136.53,145.15,127.01,192.78,464.93,Single-ply,SBD,M
Boys,125+,DQ,Shaylon Roberts,Pflugerville Hendrickson,156.49,,,,,Single-ply,SBD,M
