Division,WeightClassKg,Place,Name,Team,BodyweightKg,Best3SquatKg,Best3BenchKg,Best3DeadliftKg,TotalKg,Equipment,Event,Sex
Boys,52,1,Ty Sciba,Aubrey,50.85,106.59,68.04,124.74,299.37,Single-ply,SBD,M
Boys,52,2,Michael Ellis,Nocona,51.66,106.59,61.23,129.27,297.1,Single-ply,SBD,M
Boys,52,3,Ransom McDonald,Archer City,50.71,77.11,47.63,68.04,192.78,Single-ply,SBD,M
Boys,60,1,Brian Jackson,Seymour,59.56,147.42,88.45,140.61,376.48,Single-ply,SBD,M
Boys,60,2,John Machtolff,Archer City,59.83,111.13,83.91,122.47,317.51,Single-ply,SBD,M
Boys,60,3,Ethan Cato,Quanah,59.65,102.06,52.16,113.4,267.62,Single-ply,SBD,M
Boys,67.5,1,Tyler Richards,Nocona,66.5,158.76,88.45,176.9,424.11,Single-ply,SBD,M
Boys,67.5,2,Jeremiah Cooke,Aubrey,63.96,151.95,83.91,165.56,401.43,Single-ply,SBD,M
Boys,67.5,3,Lucas Harmon,Aubrey,64.27,129.27,79.38,161.03,369.68,Single-ply,SBD,M
Boys,67.5,4,Kory Kimbro,Electra,60.37,127.01,70.31,136.08,333.39,Single-ply,SBD,M
Boys,67.5,5,Matthew Enriquez,Aubrey,66.68,113.4,74.84,136.08,324.32,Single-ply,SBD,M
Boys,75,1,Braydon Garcia,Quanah,71.67,154.22,92.99,181.44,428.64,Single-ply,SBD,M
Boys,75,2,JR Partney,Nocona,73.26,136.08,86.18,167.83,390.09,Single-ply,SBD,M
Boys,75,3,Thomas Arnold,Seymour,71.76,149.69,79.38,156.49,385.55,Single-ply,SBD,M
Boys,75,4,Willie Salsmon,Nocona,74.84,136.08,97.52,149.69,383.29,Single-ply,SBD,M
Boys,75,5,Tyler Ray,Baird,70.53,129.27,86.18,145.15,360.61,Single-ply,SBD,M
Boys,75,6,Joseph Quintero,Seymour,69.17,102.06,97.52,122.47,322.05,Single-ply,SBD,M
Boys,75,7,Gavin Carper,Baird,71.26,117.93,74.84,124.74,317.51,Single-ply,SBD,M
Boys,75,8,Gabe Easter,Electra,72.03,106.59,47.63,113.4,267.62,Single-ply,SBD,M
Boys,82.5,1,Travis Swenson,Henrietta,80.97,185.97,136.08,190.51,512.56,Single-ply,SBD,M
Boys,82.5,2,Reed Strittmatter,Aubrey,79.56,167.83,81.65,170.1,419.57,Single-ply,SBD,M
Boys,82.5,3,Justin Browning,Archer City,79.42,151.95,97.52,156.49,405.97,Single-ply,SBD,M
Boys,82.5,4,Issaic Ryan,Nocona,77.25,147.42,79.38,176.9,403.7,Single-ply,SBD,M
Boys,82.5,5,Grant Vinson,Baird,78.65,104.33,54.43,136.08,294.84,Single-ply,SBD,M
Boys,90,1,Jesse Bustamante,Electra,84.96,147.42,102.06,158.76,408.23,Single-ply,SBD,M
Boys,100,1,Jordan Stevens,Aubrey,95.57,167.83,106.59,165.56,439.98,Single-ply,SBD,M
Boys,100,2,Aaron Cajilema,Aubrey,97.57,181.44,92.99,165.56,439.98,Single-ply,SBD,M
Boys,100,3,Carlos Winters,Nocona,98.43,156.49,102.06,156.49,415.04,Single-ply,SBD,M
Boys,110,1,Chase Stafford,Archer City,105.51,204.12,113.4,213.19,530.7,Single-ply,SBD,M
Boys,110,2,Jason Daughtry,Nocona,109.23,213.19,113.4,204.12,530.7,Single-ply,SBD,M
Boys,110,3,Brayden Berger,Aubrey,105.23,185.97,99.79,190.51,476.27,Single-ply,SBD,M
Boys,110,4,Grant Turner,Aubrey,108.36,161.03,95.25,170.1,426.38,Single-ply,SBD,M
Boys,110,5,Tyler Tucker,Electra,103.96,165.56,92.99,158.76,417.3,Single-ply,SBD,M
Boys,125,1,Deuce Glasker,Nocona,124.24,235.87,145.15,190.51,571.53,Single-ply,SBD,M
Boys,125,2,Tyler Carper,Baird,117.66,195.04,117.93,188.24,501.22,Single-ply,SBD,M
Boys,125,3,Ian James,Aubrey,114.12,188.24,92.99,192.78,474,Single-ply,SBD,M
Boys,125,4,Zane Myracle,Archer City,114.12,176.9,122.47,172.37,471.74,Single-ply,SBD,M
Boys,125+,1,Brady York,Nocona,133.36,235.87,147.42,222.26,605.55,Single-ply,SBD,M
Boys,125+,2,Tate Sizemore,Henrietta,131.41,244.94,147.42,199.58,591.94,Single-ply,SBD,M
Boys,125+,3,Wilson Odimba,Aubrey,131.59,192.78,113.4,192.78,498.95,Single-ply,SBD,M
Boys,125+,4,Josh Ward,Baird,165.56,185.97,113.4,172.37,471.74,Single-ply,SBD,M
Boys,125+,DQ,Hobie Williamson,Electra,127.01,,83.91,138.35,,Single-ply,SBD,M
Boys,,DQ,Kaleb Ray,Baird,,,,,,Single-ply,SBD,M
Boys,,DQ,Austin Atkins,Baird,,,,,,Single-ply,SBD,M
Boys,,DQ,Justin Clarkston,Seymour,,,,,,Single-ply,SBD,M
Boys,,DQ,Tristan Murdock,Seymour,,,,,,Single-ply,SBD,M
Boys,,DQ,Jonathan Goodner,Seymour,,,,,,Single-ply,SBD,M
Boys,,DQ,Kason Matthews,Quanah,,,,,,Single-ply,SBD,M
Boys,,DQ,Luis Marquez,Olney,,,,,,Single-ply,SBD,M
Boys,,DQ,Hector Hernandez,Olney,,,,,,Single-ply,SBD,M
Boys,,DQ,Jose Noyola II,Aubrey,,,,,,Single-ply,SBD,M
Boys,,DQ,Landon Stewart,Aubrey,,,,,,Single-ply,SBD,M
