Sex,Equipment,Division,WeightClassKg,State,Name,BodyweightKg,Best3SquatKg,Best3BenchKg,Best3DeadliftKg,TotalKg,Event,Place
M,Wraps,Amateur Open,75,MA,Greg Hodlin,74.93,199.58,127.01,240.4,566.99,SBD,1
M,Wraps,Amateur Masters 40-44,82.5,MA,Robert Feudo,80.47,190.51,124.74,204.12,519.36,SBD,1
M,Raw,Amateur Submasters 33-39,82.5,NH,Stephen Boyer,80.92,174.63,108.86,226.8,510.29,SBD,1
M,Raw,Amateur Masters 45-49,90,VT,Rick LaMarche,85.82,208.65,131.54,249.48,589.67,SBD,1
M,Wraps,Amateur Masters 45-49,90,VT,Darrin Clement,89.63,156.49,108.86,195.04,460.4,SBD,1
M,Wraps,Pro Masters 45-49,90,MA,Jon Adams,89.27,251.74,147.42,254.01,653.17,SBD,1
M,Raw,Amateur Masters 50-54,90,NH,Gene Whiting,89.18,142.88,102.06,185.97,430.91,SBD,1
M,Raw,Amateur Masters 60-64,90,MA,David D'Alessandro,89.18,124.74,102.06,147.42,374.21,SBD,1
M,Wraps,Amateur Masters 70-74,90,NH,David Brooker,87.82,90.72,54.43,117.93,263.08,SBD,1
M,Wraps,Amateur Masters 75-79,90,NH,Caleb Wolfe,85.09,74.84,65.77,131.54,272.16,SBD,1
M,Wraps,Amateur Masters 80-84,90,NH,Chuck McCleary,88.9,79.38,47.63,113.4,240.4,SBD,1
M,Wraps,Amateur Masters 85-89,90,NH,Jack Stinson,88.9,77.11,61.23,104.33,242.67,SBD,1
M,Raw,Amateur Submasters 33-39,90,MA,Nick Cummings,83.73,192.78,136.08,251.74,580.6,SBD,1
M,Wraps,Amateur Submasters 33-39,90,NH,Brad Parkhurst,89.27,206.38,173.5,229.06,608.95,SBD,1
M,Wraps,Amateur Submasters 33-39,90,VT,Jim Fog,88.54,192.78,122.47,217.72,532.97,SBD,2
M,Wraps,Amateur Masters 40-44,100,NH,Esteban Rubens,99.7,233.6,142.88,244.94,621.42,SBD,1
M,Wraps,Amateur Masters 40-44,100,NH,Shawn Coe,98.34,170.1,117.93,199.58,487.61,SBD,2
M,Raw,Amateur Teen 16-17,100,NH,Bryan Williams,99.79,167.83,129.27,195.04,492.15,SBD,1
M,Raw,Amateur Masters 50-54,110,NH,Jacques Belanger,109.13,158.76,104.33,226.8,489.88,SBD,1
M,Wraps,Amateur Submasters 33-39,110,MA,Dave Stuhlsatz,109.13,260.82,131.54,251.74,644.1,SBD,1
M,Raw,Amateur Masters 45-49,125,NH,Michael Soper,112.4,226.8,183.7,226.8,637.3,SBD,1
M,Wraps,Amateur Masters 65-69,125,NH,Bill Sahlman,119.66,147.42,95.25,147.42,390.09,SBD,1
M,Multi-ply,Amateur Masters 45-49,140,NH,John Biscoe,130.36,317.51,249.48,242.67,809.66,SBD,1
F,Multi-ply,Amateur Masters 60-64,67.5,MA,Jane Stabile,66.77,,79.38,,79.38,B,1
M,Raw,Amateur Masters 40-44,82.5,NJ,David Resnick,82.28,,117.93,,117.93,B,1
M,Raw,Amateur Masters 45-49,82.5,NH,Arther Mcaleer,81.37,,145.15,,145.15,B,1
M,Raw,Amateur Masters 45-49,82.5,MA,Jay Lindsay,81.56,,145.15,,145.15,B,2
F,Raw,Amateur Open,60,NH,Nicole Hurley,57.15,,68.04,115.67,183.7,BD,1
F,Raw,Amateur Masters 55-59,90,,Lindy Falconer,89.13,,45.36,92.99,138.35,BD,1
F,Raw,Amateur Masters 55-59,90+,NH,Janet Bloom,,,45.36,104.33,149.69,BD,1
M,Raw,Amateur Masters 90-94,60,NH,Peter Aptakin,59.96,,31.75,61.23,92.99,BD,1
M,Single-ply,Amateur Masters 75-79,82.5,NH,Peter Hubbard,80.92,,129.27,136.08,265.35,BD,1
M,Raw,Amateur Teen 18-19,90,NY,Chris Persons,83.46,,92.99,167.83,260.82,BD,1
M,Raw,Police/Fire/Military Amateur Open,110,NH,Donald Ross,109.32,,158.76,251.74,410.5,BD,1
M,Raw,Amateur Masters 45-49,125,NH,Alan Williams,123.83,,127.01,176.9,303.91,BD,1
M,Raw,Amateur Open,125,NH,Matthew Moran,118.84,,154.22,240.4,394.63,BD,1
F,Multi-ply,Amateur Masters 60-64,67.5,MA,Jane Stabile,66.77,,,183.7,183.7,D,1
M,Raw,Amateur Masters 55-59,90,MA,Michael Ready,89.36,,,204.12,204.12,D,1
M,Raw,Amateur Submasters 33-39,125,NH,Paul Reczek,119.66,,,224.53,224.53,D,1
F,Raw,Amateur Masters 45-49,48,VT,Denise Bloom,44.45,70.31,45.36,83.91,199.58,SBD,1
F,Wraps,Amateur Masters 65-69,52,NH,Jane Higgins,51.44,65.77,40.82,83.91,190.51,SBD,1
F,Raw,Amateur Juniors 20-23,56,MA,Michelle Marini,54.61,92.99,49.9,108.86,251.74,SBD,1
F,Raw,Amateur Masters 45-49,56,VT,Gail McKenzie,52.71,77.11,38.56,111.13,226.8,SBD,1
F,Wraps,Amateur Masters 80-84,56,VT,Alice Geiling,54.43,49.9,31.75,74.84,156.49,SBD,1
F,Wraps,Amateur Open,56,MA,Laura Levis,53.61,58.97,52.16,74.84,185.97,SBD,1
F,Raw,Amateur Masters 70-74,60,NH,Carole Krassner,59.96,43.09,27.22,74.84,145.15,SBD,1
F,Raw,Amateur Open,60,NH,Jessica Diedrich,59.96,113.4,58.97,151.95,324.32,SBD,1
F,Raw,Amateur Open,60,MA,Luciana Sousa,58.6,90.72,45.36,117.93,254.01,SBD,2
F,Raw,Amateur Submasters 33-39,60,NH,Sara Qow,57.7,104.33,54.43,117.93,276.69,SBD,1
F,Multi-ply,Pro Masters 40-44,67.5,VT,Tammy B. Howard,66.41,195.04,142.88,158.76,496.68,SBD,1
F,Raw,Amateur Masters 40-44,67.5,NH,Marie-Andree Cleary,65.68,77.11,49.9,99.79,226.8,SBD,2
F,Raw,Amateur Masters 40-44,67.5,NH,Denise Montini,67.45,63.5,38.56,74.84,176.9,SBD,3
F,Raw,Amateur Masters 50-54,67.5,NH,Kathy Goss,63.5,102.06,47.63,120.2,269.89,SBD,1
F,Wraps,Amateur Masters 55-59,67.5,NH,Valerie Thompson,65.23,86.18,45.36,104.33,235.87,SBD,1
F,Raw,Amateur Masters 60-64,67.5,NH,Denise Thomas,64.23,70.31,43.09,106.59,219.99,SBD,1
F,Raw,Amateur Masters 60-64,67.5,NH,Wendy Hayes,63.5,54.43,36.29,79.38,170.1,SBD,2
F,Multi-ply,Pro Open,67.5,VT,Cayte Bona,66.22,172.37,111.13,167.83,451.32,SBD,1
F,Raw,Pro Open,67.5,MA,Iris Irwin,65.14,149.69,83.91,154.22,387.82,SBD,1
F,Raw,Amateur Open,67.5,NH,Chrystan Fisher,64.32,108.86,63.5,140.61,312.98,SBD,1
F,Raw,Amateur Open,67.5,NH,Stevie Gow,66.86,104.33,63.5,127.01,294.84,SBD,2
F,Raw,Amateur Open,67.5,NH,Kathy Goss,63.5,102.06,47.63,120.2,269.89,SBD,3
F,Raw,Amateur Open,67.5,NH,Lisa Young,67.22,88.45,43.09,117.93,249.48,SBD,4
F,Raw,Amateur Open,67.5,NH,Denise Thomas,64.23,70.31,43.09,106.59,219.99,SBD,5
F,Raw,Amateur Submasters 33-39,67.5,MA,Kelly Lemire,64.95,113.4,61.23,138.35,312.98,SBD,1
F,Raw,Amateur Juniors 20-23,75,MA,Olivia Pijanowski,69.49,68.04,38.56,122.47,229.06,SBD,1
F,Raw,Amateur Open,75,NH,Jen Pontifex,73.66,113.4,79.38,138.35,331.12,SBD,1
F,Wraps,Amateur Masters 40-44,82.5,NH,Jennifer Crosby,80.56,95.25,61.23,102.06,258.55,SBD,1
F,Wraps,Pro Masters 40-44,82.5,VT,Denise Gebroe,80.92,140.61,79.38,165.56,385.55,SBD,1
F,Raw,Amateur Open,82.5,NH,Tanya Williams,78.47,113.4,63.5,136.08,312.98,SBD,1
F,Raw,Pro Masters 45-49,90,NH,Cindy Tilton,88.72,142.88,102.06,183.7,428.64,SBD,1
F,Wraps,Amateur Masters 45-49,90,NH,Liz LaPoint,88.99,138.35,58.97,142.88,340.19,SBD,1
F,Raw,Elite Open,90,NH,Cindy Tilton,88.72,142.88,102.06,183.7,428.64,SBD,1
F,Raw,Amateur Open,100,NH,Kristin Bolton,92.44,117.93,58.97,154.22,331.12,SBD,1
F,Raw,Amateur Submasters 33-39,100,NH,Kristin Bolton,92.44,117.93,58.97,154.22,331.12,SBD,1
F,Raw,Amateur Open,110+,NH,Lora Allison,126.82,113.4,56.7,138.35,308.44,SBD,1
F,Raw,Amateur Juniors 20-23,48,NH,Leah Citron,47.54,90.72,49.9,117.93,258.55,SBD,1
F,Raw,Amateur Masters 40-44,67.5,NH,Lana Siejkowski,66.41,81.65,54.43,106.59,242.67,SBD,1
F,Wraps,Pro Open,82.5,ME,Melinda Hurt,81.37,161.03,102.06,192.78,455.86,SBD,1
M,Raw,Amateur Youth,52,NH,Billy Crawford,46.18,58.97,31.75,90.72,181.44,SBD,1
M,Raw,Amateur Open,67.5,NH,James Kay,65.14,122.47,92.99,158.76,374.21,SBD,1
M,Raw,Amateur Juniors 20-23,75,MA,David Silvia Jr,72.76,183.7,117.93,197.31,498.95,SBD,1
M,Raw,Amateur Open,75,NH,Chris Keeley,70.03,172.37,99.79,199.58,471.74,SBD,1
M,Raw,Amateur Teen 16-17,75,MA,Ross Friedman,73.39,154.22,92.99,185.97,433.18,SBD,1
M,Raw,Amateur Juniors 20-23,82.5,NH,Ryan Bishop,78.83,192.78,129.27,254.01,576.06,SBD,1
M,Raw,Amateur Juniors 20-23,82.5,NH,Frank Swett,80.65,147.42,108.86,183.7,439.98,SBD,2
M,Wraps,Amateur Juniors 20-23,82.5,MA,Charles Merrick,79.56,188.24,111.13,199.58,498.95,SBD,1
M,Raw,Amateur Open,82.5,ME,Nicholas Trafton,80.1,195.04,117.93,247.21,560.19,SBD,1
M,Raw,Amateur Open,82.5,NH,Dillon Dickey,79.2,181.44,133.81,204.12,519.36,SBD,2
M,Raw,Amateur Open,82.5,MA,Nik Ivanov,81.83,170.1,90.72,181.44,442.25,SBD,3
M,Raw,Amateur Open,82.5,MA,Daniel Banderas,79.83,138.35,102.06,195.04,435.45,SBD,4
M,Wraps,Amateur Open,82.5,MA,Dan Berlin,82.19,222.26,158.76,265.35,646.37,SBD,1
M,Wraps,Amateur Open,82.5,NH,John Rudolf,79.38,204.12,156.49,260.82,621.42,SBD,2
M,Wraps,Amateur Open,82.5,NH,Ethan Owen,81.92,249.48,133.81,226.8,610.08,SBD,3
M,Wraps,Elite Open,82.5,NH,Richard Jorgenson,82.37,292.57,151.95,288.03,732.55,SBD,1
M,Wraps,Pro Open,82.5,NY,Evan Hoagland,81.47,278.96,149.69,283.5,712.14,SBD,1
M,Raw,Amateur Teen 16-17,82.5,MA,Dominic Ferrante,81.56,142.88,90.72,181.44,415.04,SBD,1
M,Raw,Amateur Juniors 20-23,90,MA,Paul Sullivan,87.36,138.35,95.25,158.76,392.36,SBD,1
M,Raw,Amateur Open,90,MA,Mitchell Kotler,88.63,192.78,122.47,247.21,562.45,SBD,1
M,Wraps,Pro Open,90,RI,Brandon Rubadou,88.81,272.16,149.69,263.08,684.92,SBD,1
M,Wraps,Amateur Open,90,MA,John Lake,85.37,176.9,102.06,249.48,528.44,SBD,1
M,Wraps,Amateur Open,90,NH,Patrick Noonan,85.55,167.83,106.59,199.58,474,SBD,2
M,Wraps,Amateur Open,90,NH,Nick Heafield,89.81,154.22,81.65,204.12,439.98,SBD,3
M,Multi-ply,Amateur Teen 18-19,90,VT,Nathan Bowen,88.9,272.16,170.1,226.8,669.05,SBD,1
M,Wraps,Amateur Teen 18-19,90,NH,Walters Ndi,88,235.87,158.76,274.42,669.05,SBD,1
M,Wraps,Amateur Teen 18-19,90,NH,Calvin Crowell,89.27,195.04,142.88,249.48,587.4,SBD,2
M,Wraps,Military Amateur Open,100,MA,Michael Mahoney,98.61,322.05,124.74,256.28,703.07,SBD,1
M,Wraps,Elite Open,100,MA,Michael Mahoney,98.61,322.05,124.74,256.28,703.07,SBD,1
M,Wraps,Amateur Open,100,MA,Brian Martins,96.07,183.7,104.33,233.6,521.63,SBD,1
M,Wraps,Pro Open,100,NY,Connor Hoagland,99.79,306.17,172.37,306.17,784.71,SBD,1
M,Wraps,Pro Open,100,NH,Chad Cruteau,97.25,297.1,156.49,310.71,764.3,SBD,2
M,Wraps,Pro Open,100,VT,Arron Pyrzinski,99.61,285.76,185.97,254.01,725.75,SBD,3
M,Wraps,Pro Open,100,ME,Joseph Macnicoll,95.62,238.14,113.4,249.48,601.01,SBD,4
M,Raw,Amateur Juniors 20-23,110,NH,Dan Duvall,107.41,226.8,151.95,265.35,644.1,SBD,1
M,Wraps,Amateur Open,110,NH,Troy Laprise,103.24,210.92,142.88,242.67,596.47,SBD,1
M,Wraps,Pro Open,110,NH,Christopher Dopp,104.78,210.92,115.67,249.48,576.06,SBD,1
M,Raw,Amateur Open,125,MA,Michael Malmberg,116.03,249.48,158.76,272.16,680.39,SBD,1
M,Wraps,Amateur Open,125,MA,Nik Spor,124.1,294.84,181.44,274.42,750.7,SBD,1
M,Wraps,Amateur Open,125,VT,Brandon Rolls,117.03,260.82,167.83,299.37,728.02,SBD,2
M,Wraps,Amateur Open,125,MA,Wes Page,119.2,210.92,127.01,251.74,589.67,SBD,3
M,Wraps,Pro Open,125,ME,Greg Panora,122.65,349.27,258.55,345.86,953.68,SBD,1
M,Wraps,Pro Open,125,ME,Mike Lawrence,121.65,362.87,215.46,317.51,895.84,SBD,2
M,Wraps,Pro Open,125,VT,Lucas Hughes,118.84,278.96,190.51,303.91,773.37,SBD,3
M,Wraps,Pro Open,125,NH,Andrew Piscitelli,113.31,283.5,165.56,294.84,743.89,SBD,4
M,Wraps,Pro Open,125,MA,Brad Anderson,123.38,265.35,165.56,283.5,714.41,SBD,5
M,Wraps,Pro Open,125,ME,John Wilnilkea,118.02,272.16,151.95,281.23,705.34,SBD,6
M,Wraps,Military Amateur Open,125,,Bob Jenson,123.83,170.1,170.1,210.92,551.11,SBD,1
M,Wraps,Amateur Open,140+,MA,Paul Paldino,,303.91,167.83,285.76,757.5,SBD,1
M,Raw,Amateur Open,90,MA,Frank Couninan,88.27,,,215.46,215.46,D,1
